EESchema Schematic File Version 4
EELAYER 30 0
EELAYER END
$Descr A2 23386 16535
encoding utf-8
Sheet 1 1
Title ""
Date ""
Rev ""
Comp ""
Comment1 ""
Comment2 ""
Comment3 ""
Comment4 ""
$EndDescr
Text Label 6350 3950 0    70   ~ 0
TP_IRQ
Text Label 3500 3250 0    70   ~ 0
TP_CS
Wire Wire Line
	6100 2550 6800 2550
Wire Wire Line
	6800 2550 6800 2250
Text Label 3500 4050 0    70   ~ 0
MOSI
Text Label 3500 4150 0    70   ~ 0
MISO
Text Label 3500 4250 0    70   ~ 0
SCK
Wire Wire Line
	19650 2800 19950 2800
Wire Wire Line
	19950 2800 19950 2500
Wire Wire Line
	20250 2500 19950 2500
Wire Wire Line
	20250 2500 20450 2500
Wire Wire Line
	20450 2500 20450 2900
Wire Wire Line
	20450 2900 21100 2900
Wire Wire Line
	21100 4000 21100 2900
Connection ~ 20250 2500
Wire Wire Line
	20950 4000 20950 3000
Text Label 3525 4450 0    70   ~ 0
ENC_A
Text Label 3500 4350 0    70   ~ 0
ENC_B
Wire Wire Line
	18650 2800 18350 2800
Wire Wire Line
	18350 2800 18350 2900
Wire Wire Line
	18650 2900 18350 2900
Wire Wire Line
	18350 2900 18150 2900
Wire Wire Line
	18150 2900 16850 2900
Wire Wire Line
	17950 2500 18150 2500
Wire Wire Line
	18150 2500 18150 2900
Text Label 3500 3150 0    70   ~ 0
REN
Connection ~ 18350 2900
Text Label 17250 2900 0    70   ~ 0
REN
Connection ~ 18150 2900
Wire Wire Line
	20750 4100 20750 3500
Wire Wire Line
	19650 3500 19650 3000
Wire Wire Line
	19650 3500 19350 3500
Wire Wire Line
	19350 3500 19350 4100
Wire Wire Line
	17550 3500 19350 3500
Wire Wire Line
	20250 3500 20750 3500
Wire Wire Line
	20250 3500 20250 3400
Connection ~ 19350 3500
Connection ~ 19650 3500
Connection ~ 20250 3500
Wire Wire Line
	6100 3250 7300 3250
Wire Wire Line
	7000 2450 7000 2750
Wire Wire Line
	7000 2750 6100 2750
Wire Wire Line
	16950 2700 17550 2700
Text Label 3500 2950 0    70   ~ 0
RX1
Wire Wire Line
	18250 2500 18250 3000
Wire Wire Line
	18250 3000 18650 3000
Wire Wire Line
	18250 3000 16750 3000
Connection ~ 18250 3000
Text Label 17250 3000 0    70   ~ 0
TX1
Text Label 3500 3050 0    70   ~ 0
TX1
Text Label 6300 3050 0    70   ~ 0
USB_D-
Text Label 6300 3150 0    70   ~ 0
USB_D+
Wire Wire Line
	1850 4750 2000 4750
Text Label 3800 4750 0    70   ~ 0
SDA
Wire Wire Line
	1850 4850 2200 4850
Text Label 3825 4850 0    70   ~ 0
SCL
Text Label 6100 3750 0    70   ~ 0
AGND
Text Label 3500 3550 0    70   ~ 0
TFT_BACKLIGHT
Text Label 3800 4950 0    70   ~ 0
SD_CS
Text Label 3500 3350 0    70   ~ 0
ADC_CS
Text Label 3525 4650 0    70   ~ 0
LED_RST
Text Label 3500 3850 0    70   ~ 0
TFT_DC
Text Label 3500 3950 0    70   ~ 0
TFT_CS
Wire Wire Line
	17350 2000 17350 2100
Wire Wire Line
	19650 2100 19650 2700
Wire Wire Line
	20250 2100 19850 2100
Wire Wire Line
	19850 2100 19650 2100
Wire Wire Line
	19850 2100 19850 3100
Connection ~ 19650 2100
Connection ~ 19850 2100
Wire Wire Line
	6100 2650 6700 2650
Wire Wire Line
	6100 2350 6400 2350
$Comp
L geld_2021-rescue:3.3V-0_geld_2020 #SUPPLY0101
U 1 1 5C3C6B1F
P 6800 2250
AR Path="/5C3C6B1F" Ref="#SUPPLY0101"  Part="1" 
AR Path="/5C2E86C6/5C3C6B1F" Ref="#SUPPLY?"  Part="1" 
AR Path="/5C3072CA/5C3C6B1F" Ref="#SUPPLY?"  Part="1" 
F 0 "#SUPPLY0101" H 6800 2250 50  0001 C CNN
F 1 "3.3V" H 6760 2390 59  0000 L BNN
F 2 "" H 6800 2250 50  0001 C CNN
F 3 "" H 6800 2250 50  0001 C CNN
	1    6800 2250
	1    0    0    -1  
$EndComp
$Comp
L geld_2021-rescue:RS485SOIC-0_geld_2020 U$1
U 1 1 5C3C6B25
P 19050 2800
AR Path="/5C3C6B25" Ref="U$1"  Part="1" 
AR Path="/5C2E86C6/5C3C6B25" Ref="U$?"  Part="1" 
AR Path="/5C3072CA/5C3C6B25" Ref="U$?"  Part="1" 
F 0 "U$1" H 18750 3120 59  0000 L BNN
F 1 "RS485SOIC" H 18750 2300 59  0000 L BNN
F 2 "Package_SO:SOIC-8-1EP_3.9x4.9mm_P1.27mm_EP2.29x3mm" H 19050 2800 50  0001 C CNN
F 3 "" H 19050 2800 50  0001 C CNN
	1    19050 2800
	1    0    0    -1  
$EndComp
$Comp
L geld_2021-rescue:R-Device-geld_2020-rescue R7
U 1 1 5C3C6B32
P 20250 2300
AR Path="/5C3C6B32" Ref="R7"  Part="1" 
AR Path="/5C2E86C6/5C3C6B32" Ref="R?"  Part="1" 
AR Path="/5C3072CA/5C3C6B32" Ref="R?"  Part="1" 
F 0 "R7" H 20100 2359 59  0000 L BNN
F 1 "560" H 20100 2170 59  0000 L BNN
F 2 "Resistor_SMD:R_0603_1608Metric_Pad1.05x0.95mm_HandSolder" H 20250 2300 50  0001 C CNN
F 3 "" H 20250 2300 50  0001 C CNN
	1    20250 2300
	1    0    0    -1  
$EndComp
$Comp
L geld_2021-rescue:R-Device-geld_2020-rescue R8
U 1 1 5C3C6B39
P 20250 2800
AR Path="/5C3C6B39" Ref="R8"  Part="1" 
AR Path="/5C2E86C6/5C3C6B39" Ref="R?"  Part="1" 
AR Path="/5C3072CA/5C3C6B39" Ref="R?"  Part="1" 
F 0 "R8" H 20100 2859 59  0000 L BNN
F 1 "130" H 20100 2670 59  0000 L BNN
F 2 "Resistor_SMD:R_0603_1608Metric_Pad1.05x0.95mm_HandSolder" H 20250 2800 50  0001 C CNN
F 3 "" H 20250 2800 50  0001 C CNN
	1    20250 2800
	1    0    0    -1  
$EndComp
$Comp
L geld_2021-rescue:R-Device-geld_2020-rescue R9
U 1 1 5C3C6B40
P 20250 3250
AR Path="/5C3C6B40" Ref="R9"  Part="1" 
AR Path="/5C2E86C6/5C3C6B40" Ref="R?"  Part="1" 
AR Path="/5C3072CA/5C3C6B40" Ref="R?"  Part="1" 
F 0 "R9" H 20100 3309 59  0000 L BNN
F 1 "560" H 20100 3120 59  0000 L BNN
F 2 "Resistor_SMD:R_0603_1608Metric_Pad1.05x0.95mm_HandSolder" H 20250 3250 50  0001 C CNN
F 3 "" H 20250 3250 50  0001 C CNN
	1    20250 3250
	1    0    0    -1  
$EndComp
$Comp
L geld_2021-rescue:R-Device-geld_2020-rescue R5
U 1 1 5C3C6B47
P 17950 2350
AR Path="/5C3C6B47" Ref="R5"  Part="1" 
AR Path="/5C2E86C6/5C3C6B47" Ref="R?"  Part="1" 
AR Path="/5C3072CA/5C3C6B47" Ref="R?"  Part="1" 
F 0 "R5" H 17800 2409 59  0000 L BNN
F 1 "4k7" H 17800 2220 59  0000 L BNN
F 2 "Resistor_SMD:R_0603_1608Metric_Pad1.05x0.95mm_HandSolder" H 17950 2350 50  0001 C CNN
F 3 "" H 17950 2350 50  0001 C CNN
	1    17950 2350
	1    0    0    -1  
$EndComp
$Comp
L geld_2021-rescue:R-Device-geld_2020-rescue R6
U 1 1 5C3C6B4E
P 18250 2350
AR Path="/5C3C6B4E" Ref="R6"  Part="1" 
AR Path="/5C2E86C6/5C3C6B4E" Ref="R?"  Part="1" 
AR Path="/5C3072CA/5C3C6B4E" Ref="R?"  Part="1" 
F 0 "R6" H 18100 2409 59  0000 L BNN
F 1 "4k7" H 18100 2220 59  0000 L BNN
F 2 "Resistor_SMD:R_0603_1608Metric_Pad1.05x0.95mm_HandSolder" H 18250 2350 50  0001 C CNN
F 3 "" H 18250 2350 50  0001 C CNN
	1    18250 2350
	1    0    0    -1  
$EndComp
$Comp
L geld_2021-rescue:R-Device-geld_2020-rescue R3
U 1 1 5C3C6B55
P 17550 3300
AR Path="/5C3C6B55" Ref="R3"  Part="1" 
AR Path="/5C2E86C6/5C3C6B55" Ref="R?"  Part="1" 
AR Path="/5C3072CA/5C3C6B55" Ref="R?"  Part="1" 
F 0 "R3" H 17400 3359 59  0000 L BNN
F 1 "6K8" H 17400 3170 59  0000 L BNN
F 2 "Resistor_SMD:R_0603_1608Metric_Pad1.05x0.95mm_HandSolder" H 17550 3300 50  0001 C CNN
F 3 "" H 17550 3300 50  0001 C CNN
	1    17550 3300
	1    0    0    -1  
$EndComp
$Comp
L geld_2021-rescue:GND-0_geld_2020 #GND0101
U 1 1 5C3C6B63
P 19350 4200
AR Path="/5C3C6B63" Ref="#GND0101"  Part="1" 
AR Path="/5C2E86C6/5C3C6B63" Ref="#GND?"  Part="1" 
AR Path="/5C3072CA/5C3C6B63" Ref="#GND?"  Part="1" 
F 0 "#GND0101" H 19350 4200 50  0001 C CNN
F 1 "GND" H 19250 4100 59  0000 L BNN
F 2 "" H 19350 4200 50  0001 C CNN
F 3 "" H 19350 4200 50  0001 C CNN
	1    19350 4200
	1    0    0    -1  
$EndComp
$Comp
L geld_2021-rescue:GND-0_geld_2020 #GND0102
U 1 1 5C3C6B69
P 7000 2350
AR Path="/5C3C6B69" Ref="#GND0102"  Part="1" 
AR Path="/5C2E86C6/5C3C6B69" Ref="#GND?"  Part="1" 
AR Path="/5C3072CA/5C3C6B69" Ref="#GND?"  Part="1" 
F 0 "#GND0102" H 7000 2350 50  0001 C CNN
F 1 "GND" H 6900 2250 59  0000 L BNN
F 2 "" H 7000 2350 50  0001 C CNN
F 3 "" H 7000 2350 50  0001 C CNN
	1    7000 2350
	-1   0    0    1   
$EndComp
$Comp
L geld_2021-rescue:R-Device-geld_2020-rescue R4
U 1 1 5C3C6BF5
P 17750 2700
AR Path="/5C3C6BF5" Ref="R4"  Part="1" 
AR Path="/5C2E86C6/5C3C6BF5" Ref="R?"  Part="1" 
AR Path="/5C3072CA/5C3C6BF5" Ref="R?"  Part="1" 
F 0 "R4" H 17600 2759 59  0000 L BNN
F 1 "3K9" H 17600 2570 59  0000 L BNN
F 2 "Resistor_SMD:R_0603_1608Metric_Pad1.05x0.95mm_HandSolder" H 17750 2700 50  0001 C CNN
F 3 "" H 17750 2700 50  0001 C CNN
	1    17750 2700
	0    -1   -1   0   
$EndComp
$Comp
L geld_2021-rescue:5V-0_geld_2020 #SUPPLY0102
U 1 1 5C3C6BFC
P 17350 2000
AR Path="/5C3C6BFC" Ref="#SUPPLY0102"  Part="1" 
AR Path="/5C2E86C6/5C3C6BFC" Ref="#SUPPLY?"  Part="1" 
AR Path="/5C3072CA/5C3C6BFC" Ref="#SUPPLY?"  Part="1" 
F 0 "#SUPPLY0102" H 17350 2000 50  0001 C CNN
F 1 "5V" H 17350 2110 59  0000 C BNN
F 2 "" H 17350 2000 50  0001 C CNN
F 3 "" H 17350 2000 50  0001 C CNN
	1    17350 2000
	1    0    0    -1  
$EndComp
Text GLabel 6100 2950 0    10   BiDi ~ 0
USB_5V
Text Label 16950 2700 0    50   ~ 0
RX1
Text HLabel 3050 3350 0    50   Input ~ 0
ADC_CS
Text HLabel 3050 3550 0    50   Input ~ 0
TFT_BACKLIGHT
Text HLabel 3050 3850 0    50   Input ~ 0
TFT_DC
Text HLabel 3050 3950 0    50   Input ~ 0
TFT_CS
Text HLabel 3050 4050 0    50   Input ~ 0
MOSI
Text HLabel 3050 4150 0    50   Input ~ 0
MISO
Text HLabel 3050 4250 0    50   Input ~ 0
SCK
Text HLabel 2900 4350 0    50   Input ~ 0
ENC_B
Text HLabel 2900 4450 0    50   Input ~ 0
ENC_A
Text HLabel 3200 4650 0    50   Input ~ 0
LED_RST
Text HLabel 1850 4750 0    50   Input ~ 0
SDA
Text HLabel 1850 4850 0    50   Input ~ 0
SCL
Text HLabel 3050 4950 0    50   Input ~ 0
SD_CS
Wire Wire Line
	5850 10000 5850 9600
Wire Wire Line
	5550 10000 5850 10000
Wire Wire Line
	5850 10000 6450 10000
Connection ~ 5850 10000
Text Label 5850 10000 2    10   ~ 0
3.3V
Wire Wire Line
	8750 9200 8750 8900
Wire Wire Line
	9550 9200 9550 8900
Wire Wire Line
	9550 9200 8750 9200
Wire Wire Line
	10350 9200 10350 8900
Wire Wire Line
	10350 9200 9550 9200
Wire Wire Line
	11150 9200 11150 8900
Wire Wire Line
	11150 9200 10350 9200
Wire Wire Line
	11950 9200 11950 8900
Wire Wire Line
	11950 9200 11150 9200
Wire Wire Line
	12750 9200 12750 8900
Wire Wire Line
	12750 9200 11950 9200
Wire Wire Line
	13550 9200 13550 8900
Wire Wire Line
	13550 9200 12750 9200
Wire Wire Line
	14350 9200 14350 8900
Wire Wire Line
	14350 9200 13550 9200
Connection ~ 9550 9200
Connection ~ 10350 9200
Connection ~ 11150 9200
Connection ~ 11950 9200
Connection ~ 12750 9200
Connection ~ 13550 9200
Connection ~ 14350 9200
Wire Wire Line
	6450 10600 4850 10600
Text Label 6150 10600 2    70   ~ 0
MISO
Wire Wire Line
	6450 10700 4850 10700
Text Label 6150 10700 2    70   ~ 0
MOSI
Wire Wire Line
	6450 10500 4850 10500
Text Label 6150 10500 2    70   ~ 0
SCK
Text Label 6150 10800 2    70   ~ 0
ADC_CS
Wire Wire Line
	5250 10000 5250 10300
Wire Wire Line
	5250 11000 5250 11300
Wire Wire Line
	6450 11000 5250 11000
Connection ~ 5250 11000
Text Label 5750 10300 2    10   ~ 0
GND
Wire Wire Line
	14050 8500 14050 10600
Wire Wire Line
	13250 10500 13250 8500
Wire Wire Line
	7650 10400 12450 10400
Wire Wire Line
	12450 8500 12450 10400
Wire Wire Line
	7650 10300 11650 10300
Wire Wire Line
	11650 10300 11650 8500
Wire Wire Line
	10850 10200 7650 10200
Wire Wire Line
	10850 8500 10850 10200
Wire Wire Line
	7650 10100 10050 10100
Wire Wire Line
	10050 10100 10050 8500
Wire Wire Line
	7650 10000 9250 10000
Wire Wire Line
	9250 10000 9250 8500
Wire Wire Line
	6450 10200 6250 10200
Wire Wire Line
	6250 10200 6250 9600
Text Label 6450 10200 2    10   ~ 0
VDDA
Wire Wire Line
	5650 9000 5650 10300
Wire Wire Line
	8950 8900 8950 9000
Wire Wire Line
	8950 9000 9750 9000
Wire Wire Line
	9750 9000 9750 8900
Wire Wire Line
	9750 9000 10550 9000
Wire Wire Line
	10550 9000 10550 8900
Wire Wire Line
	10550 9000 11350 9000
Wire Wire Line
	11350 9000 11350 8900
Wire Wire Line
	11350 9000 12150 9000
Wire Wire Line
	12150 9000 12150 8900
Wire Wire Line
	12150 9000 12950 9000
Wire Wire Line
	12950 9000 12950 8900
Wire Wire Line
	12950 9000 13750 9000
Wire Wire Line
	13750 9000 13750 8900
Wire Wire Line
	13750 9000 14550 9000
Wire Wire Line
	14550 9000 14550 8900
Wire Wire Line
	5650 9000 8950 9000
Text Label 6150 10300 2    70   ~ 0
AGND
Connection ~ 9750 9000
Connection ~ 10550 9000
Connection ~ 11350 9000
Connection ~ 12150 9000
Connection ~ 12950 9000
Connection ~ 13750 9000
Connection ~ 8950 9000
$Comp
L geld_2021-rescue:MCP3008-0_geld_2020 SPI_ADC?
U 1 1 5C3C6E21
P 6950 11000
AR Path="/5C3072CD/5C3C6E21" Ref="SPI_ADC?"  Part="1" 
AR Path="/5C3072CA/5C3C6E21" Ref="SPI_ADC?"  Part="1" 
AR Path="/5C3C6E21" Ref="U4"  Part="1" 
F 0 "U4" H 6950 11000 50  0001 C CNN
F 1 "MCP3008" H 6950 11000 50  0001 C CNN
F 2 "Package_SO:SOIC-16_4.55x10.3mm_P1.27mm" H 6950 11000 50  0001 C CNN
F 3 "" H 6950 11000 50  0001 C CNN
	1    6950 11000
	-1   0    0    -1  
$EndComp
$Comp
L geld_2021-rescue:C-Device-geld_2020-rescue C?
U 1 1 5C3C6E2E
P 5400 10000
AR Path="/5C3072CD/5C3C6E2E" Ref="C?"  Part="1" 
AR Path="/5C3072CA/5C3C6E2E" Ref="C?"  Part="1" 
AR Path="/5C3C6E2E" Ref="C8"  Part="1" 
F 0 "C8" H 5460 10115 59  0000 L BNN
F 1 "100nF" H 5460 9915 59  0000 L BNN
F 2 "Capacitor_SMD:C_0603_1608Metric_Pad1.05x0.95mm_HandSolder" H 5400 10000 50  0001 C CNN
F 3 "" H 5400 10000 50  0001 C CNN
	1    5400 10000
	0    1    -1   0   
$EndComp
$Comp
L geld_2021-rescue:BOURNS_SLIDER_45MM_LED-0_geld_2020 POT?
U 1 1 5C3C6E7D
P 9350 8600
AR Path="/5C3072CD/5C3C6E7D" Ref="POT?"  Part="1" 
AR Path="/5C3072CA/5C3C6E7D" Ref="POT?"  Part="1" 
AR Path="/5C3C6E7D" Ref="POT2"  Part="1" 
F 0 "POT2" V 9970 8390 70  0000 R TNN
F 1 "BOURNS_SLIDER_45MM_LED" H 9350 8600 50  0001 C CNN
F 2 "geld_module:BOURNS_SLIDER_45MM_LED" H 9350 8600 50  0001 C CNN
F 3 "" H 9350 8600 50  0001 C CNN
	1    9350 8600
	1    0    0    1   
$EndComp
$Comp
L geld_2021-rescue:BOURNS_SLIDER_45MM_LED-0_geld_2020 POT?
U 1 1 5C3C6E84
P 10150 8600
AR Path="/5C3072CD/5C3C6E84" Ref="POT?"  Part="1" 
AR Path="/5C3072CA/5C3C6E84" Ref="POT?"  Part="1" 
AR Path="/5C3C6E84" Ref="POT3"  Part="1" 
F 0 "POT3" V 10770 8390 70  0000 R TNN
F 1 "BOURNS_SLIDER_45MM_LED" H 10150 8600 50  0001 C CNN
F 2 "geld_module:BOURNS_SLIDER_45MM_LED" H 10150 8600 50  0001 C CNN
F 3 "" H 10150 8600 50  0001 C CNN
	1    10150 8600
	1    0    0    1   
$EndComp
$Comp
L geld_2021-rescue:BOURNS_SLIDER_45MM_LED-0_geld_2020 POT?
U 1 1 5C3C6E99
P 12550 8600
AR Path="/5C3072CD/5C3C6E99" Ref="POT?"  Part="1" 
AR Path="/5C3072CA/5C3C6E99" Ref="POT?"  Part="1" 
AR Path="/5C3C6E99" Ref="POT6"  Part="1" 
F 0 "POT6" V 13170 8390 70  0000 R TNN
F 1 "BOURNS_SLIDER_45MM_LED" H 12550 8600 50  0001 C CNN
F 2 "geld_module:BOURNS_SLIDER_45MM_LED" H 12550 8600 50  0001 C CNN
F 3 "" H 12550 8600 50  0001 C CNN
	1    12550 8600
	1    0    0    1   
$EndComp
$Comp
L geld_2021-rescue:BOURNS_SLIDER_45MM_LED-0_geld_2020 POT?
U 1 1 5C3C6EA0
P 13350 8600
AR Path="/5C3072CD/5C3C6EA0" Ref="POT?"  Part="1" 
AR Path="/5C3072CA/5C3C6EA0" Ref="POT?"  Part="1" 
AR Path="/5C3C6EA0" Ref="POT7"  Part="1" 
F 0 "POT7" V 13970 8390 70  0000 R TNN
F 1 "BOURNS_SLIDER_45MM_LED" H 13350 8600 50  0001 C CNN
F 2 "geld_module:BOURNS_SLIDER_45MM_LED" H 13350 8600 50  0001 C CNN
F 3 "" H 13350 8600 50  0001 C CNN
	1    13350 8600
	1    0    0    1   
$EndComp
$Comp
L geld_2021-rescue:BOURNS_SLIDER_45MM_LED-0_geld_2020 POT?
U 1 1 5C3C6EAE
P 8550 8600
AR Path="/5C3072CD/5C3C6EAE" Ref="POT?"  Part="1" 
AR Path="/5C3072CA/5C3C6EAE" Ref="POT?"  Part="1" 
AR Path="/5C3C6EAE" Ref="POT1"  Part="1" 
F 0 "POT1" V 9170 8390 70  0000 R TNN
F 1 "BOURNS_SLIDER_45MM_LED" H 8550 8600 50  0001 C CNN
F 2 "geld_module:BOURNS_SLIDER_45MM_LED" H 8550 8600 50  0001 C CNN
F 3 "" H 8550 8600 50  0001 C CNN
	1    8550 8600
	1    0    0    1   
$EndComp
$Comp
L geld_2021-rescue:GND-0_geld_2020 #GND?
U 1 1 5C3C6EF2
P 8650 2450
AR Path="/5C3072CD/5C3C6EF2" Ref="#GND?"  Part="1" 
AR Path="/5C3072CA/5C3C6EF2" Ref="#GND?"  Part="1" 
AR Path="/5C3C6EF2" Ref="#GND0107"  Part="1" 
F 0 "#GND0107" H 8650 2450 50  0001 C CNN
F 1 "GND" H 8650 2440 59  0000 C TNN
F 2 "" H 8650 2450 50  0001 C CNN
F 3 "" H 8650 2450 50  0001 C CNN
	1    8650 2450
	1    0    0    1   
$EndComp
$Comp
L geld_2021-rescue:3.3V-0_geld_2020 #SUPPLY?
U 1 1 5C3C6EF8
P 8650 5250
AR Path="/5C3072CD/5C3C6EF8" Ref="#SUPPLY?"  Part="1" 
AR Path="/5C3072CA/5C3C6EF8" Ref="#SUPPLY?"  Part="1" 
AR Path="/5C3C6EF8" Ref="#SUPPLY0106"  Part="1" 
F 0 "#SUPPLY0106" H 8650 5250 50  0001 C CNN
F 1 "3.3V" H 8650 5360 59  0000 C BNN
F 2 "" H 8650 5250 50  0001 C CNN
F 3 "" H 8650 5250 50  0001 C CNN
	1    8650 5250
	1    0    0    1   
$EndComp
$Comp
L geld_2021-rescue:2,4"TFT_TOUCHSCREEN_ILI9341-0_geld_2020 X?
U 1 1 5C3C6EFE
P 9200 4750
AR Path="/5C3072CD/5C3C6EFE" Ref="X?"  Part="1" 
AR Path="/5C3072CA/5C3C6EFE" Ref="X?"  Part="1" 
AR Path="/5C3C6EFE" Ref="X1"  Part="1" 
F 0 "X1" H 9200 4750 50  0001 C CNN
F 1 "2,4\"TFT_TOUCHSCREEN_ILI9341" H 9200 4750 50  0001 C CNN
F 2 "geld_module:ER-TFT_2.4_TOUCH_neu" H 9200 4750 50  0001 C CNN
F 3 "" H 9200 4750 50  0001 C CNN
	1    9200 4750
	1    0    0    1   
$EndComp
Wire Wire Line
	11300 4050 10600 4050
Text Label 9000 2850 0    10   ~ 0
GND
Wire Wire Line
	9000 2850 8650 2850
Text Label 10800 3550 0    70   ~ 0
TP_PEN
Wire Wire Line
	10600 3550 11300 3550
Wire Wire Line
	10600 4150 11300 4150
Text Label 10800 4250 0    70   ~ 0
TFT_CS
Wire Wire Line
	10600 4250 11300 4250
Text Label 10800 3350 0    70   ~ 0
SD_CS
Wire Wire Line
	10600 3350 11300 3350
Text Label 10800 3650 0    70   ~ 0
TP_CS
Wire Wire Line
	10600 3650 11300 3650
Text Label 10800 4450 0    70   ~ 0
SCK
Wire Wire Line
	10600 4450 11300 4450
Text Label 10800 4550 0    70   ~ 0
MOSI
Wire Wire Line
	10600 4550 11300 4550
Text Label 10800 4650 0    70   ~ 0
MISO
Wire Wire Line
	10600 4650 11300 4650
Text Label 9000 4950 0    10   ~ 0
3.3V
Wire Wire Line
	8900 5350 8900 4950
Wire Wire Line
	10700 4950 10700 5350
Wire Wire Line
	10600 4950 10700 4950
Wire Wire Line
	8650 4950 8650 5250
Wire Wire Line
	8900 4950 8650 4950
Connection ~ 8900 4950
Wire Wire Line
	9000 4950 8900 4950
Text HLabel 11300 4250 2    50   Input ~ 0
TFT_CS
Text HLabel 11300 4150 2    50   Input ~ 0
TFT_DC
Text HLabel 11300 4050 2    50   Input ~ 0
TFT_BACKLIGHT
Text HLabel 11300 3650 2    50   Input ~ 0
TP_CS
Text HLabel 11300 3550 2    50   Input ~ 0
TP_PEN
Text HLabel 11300 3350 2    50   Input ~ 0
SD_CS
NoConn ~ 10600 3150
NoConn ~ 10600 3050
NoConn ~ 10600 2950
NoConn ~ 10600 2850
NoConn ~ 9000 4750
NoConn ~ 9000 4650
NoConn ~ 9000 4550
NoConn ~ 9000 4450
NoConn ~ 9000 4350
NoConn ~ 9000 4250
NoConn ~ 9000 4150
NoConn ~ 9000 4050
NoConn ~ 9000 3950
NoConn ~ 9000 3850
NoConn ~ 9000 3750
NoConn ~ 9000 3650
NoConn ~ 9000 3550
NoConn ~ 9000 3450
NoConn ~ 9000 3350
NoConn ~ 9000 3250
NoConn ~ 9000 3150
NoConn ~ 9000 3050
Text HLabel 11300 4650 2    50   Input ~ 0
MISO
Text HLabel 11300 4550 2    50   Input ~ 0
MOSI
Text HLabel 11300 4450 2    50   Input ~ 0
SCK
NoConn ~ 10600 4850
NoConn ~ 10600 3850
Text HLabel 19400 11250 2    50   Input ~ 0
SDA
Text HLabel 19400 11350 2    50   Input ~ 0
SCL
Text HLabel 19350 11450 2    50   Input ~ 0
LED_RST
Wire Wire Line
	6450 10800 4850 10800
Wire Wire Line
	6450 10300 5650 10300
Wire Wire Line
	5650 10300 5250 10300
Connection ~ 5650 10300
Connection ~ 5250 10300
Wire Wire Line
	5250 10300 5250 11000
Text HLabel 4850 10500 0    50   Input ~ 0
SCK
Text HLabel 4850 10600 0    50   Input ~ 0
MISO
Text HLabel 4850 10700 0    50   Input ~ 0
MOSI
Text HLabel 4850 10800 0    50   Input ~ 0
ADC_CS
Text HLabel 3450 13400 2    50   Input ~ 0
ENC_B
Text HLabel 3450 13600 2    50   Input ~ 0
ENC_A
Wire Wire Line
	3450 13400 2900 13400
Wire Wire Line
	3450 13600 2900 13600
$Comp
L geld_2021-rescue:5V-0_geld_2020 #5V0101
U 1 1 5C3C7038
P 6900 15750
AR Path="/5C3C7038" Ref="#5V0101"  Part="1" 
AR Path="/5C2E892E/5C3C7038" Ref="#5V?"  Part="1" 
AR Path="/5C3072D0/5C3C7038" Ref="#5V?"  Part="1" 
AR Path="/5C3072CA/5C3C7038" Ref="#5V?"  Part="1" 
F 0 "#5V0101" H 6900 15750 50  0001 C CNN
F 1 "5V" H 6840 15790 42  0000 L BNN
F 2 "" H 6900 15750 50  0001 C CNN
F 3 "" H 6900 15750 50  0001 C CNN
	1    6900 15750
	1    0    0    -1  
$EndComp
Text HLabel 3400 2950 0    50   Input ~ 0
RX1
Text HLabel 3400 3050 0    50   Input ~ 0
TX1
Text HLabel 3400 3150 0    50   Input ~ 0
REN
$Comp
L geld_2021-rescue:VDDA-0_geld_2020 #U$?
U 1 1 5C3C6EC2
P 16900 7700
AR Path="/5C3072CD/5C3C6EC2" Ref="#U$?"  Part="1" 
AR Path="/5C3072CA/5C3C6EC2" Ref="#U$?"  Part="1" 
AR Path="/5C3C6EC2" Ref="#U$0117"  Part="1" 
F 0 "#U$0117" H 16900 7700 50  0001 C CNN
F 1 "VDDA" H 16900 7810 59  0000 C BNN
F 2 "" H 16900 7700 50  0001 C CNN
F 3 "" H 16900 7700 50  0001 C CNN
	1    16900 7700
	-1   0    0    -1  
$EndComp
Text Label 20750 3900 1    61   ~ 0
GND
$Comp
L geld_2021-rescue:GND-0_geld_2020 #GND0116
U 1 1 60890528
P 20750 4200
AR Path="/60890528" Ref="#GND0116"  Part="1" 
AR Path="/5C2E86C6/60890528" Ref="#GND?"  Part="1" 
AR Path="/5C3072CA/60890528" Ref="#GND?"  Part="1" 
F 0 "#GND0116" H 20750 4200 50  0001 C CNN
F 1 "GND" H 20650 4100 59  0000 L BNN
F 2 "" H 20750 4200 50  0001 C CNN
F 3 "" H 20750 4200 50  0001 C CNN
	1    20750 4200
	1    0    0    -1  
$EndComp
Wire Wire Line
	21650 3150 21950 3150
Wire Wire Line
	21650 3250 21950 3250
Text HLabel 21950 3150 2    61   Input ~ 0
DMX-
Text HLabel 21950 3250 2    61   Input ~ 0
DMX+
$Comp
L geld_2021-rescue:GND-0_geld_2020 #GND0117
U 1 1 60E8EB07
P 22350 4150
AR Path="/60E8EB07" Ref="#GND0117"  Part="1" 
AR Path="/5C2E86C6/60E8EB07" Ref="#GND?"  Part="1" 
AR Path="/5C3072CA/60E8EB07" Ref="#GND?"  Part="1" 
F 0 "#GND0117" H 22350 4150 50  0001 C CNN
F 1 "GND" H 22250 4050 59  0000 L BNN
F 2 "" H 22350 4150 50  0001 C CNN
F 3 "" H 22350 4150 50  0001 C CNN
	1    22350 4150
	1    0    0    -1  
$EndComp
Wire Wire Line
	7300 3250 7300 4650
$Comp
L geld_2021-rescue:GND-0_geld_2020 #GND0118
U 1 1 61063932
P 7300 4750
AR Path="/61063932" Ref="#GND0118"  Part="1" 
AR Path="/5C2E86C6/61063932" Ref="#GND?"  Part="1" 
AR Path="/5C3072CA/61063932" Ref="#GND?"  Part="1" 
F 0 "#GND0118" H 7300 4750 50  0001 C CNN
F 1 "GND" H 7200 4650 59  0000 L BNN
F 2 "" H 7300 4750 50  0001 C CNN
F 3 "" H 7300 4750 50  0001 C CNN
	1    7300 4750
	1    0    0    -1  
$EndComp
Wire Wire Line
	6100 3150 7250 3150
Wire Wire Line
	6100 3050 7250 3050
Text HLabel 7250 3050 2    61   Input ~ 0
USB_D-
Text HLabel 7250 3150 2    61   Input ~ 0
USB_D+
Text HLabel 15200 2500 2    61   Input ~ 0
VBUS
Text HLabel 15150 2750 2    61   Input ~ 0
USB_D-
Text HLabel 15150 2850 2    61   Input ~ 0
USB_D+
$Comp
L geld_2021-rescue:BOURNS_SLIDER_45MM_LED-0_geld_2020 POT?
U 1 1 5C3C6E92
P 11750 8600
AR Path="/5C3072CD/5C3C6E92" Ref="POT?"  Part="1" 
AR Path="/5C3072CA/5C3C6E92" Ref="POT?"  Part="1" 
AR Path="/5C3C6E92" Ref="POT5"  Part="1" 
F 0 "POT5" V 12370 8390 70  0000 R TNN
F 1 "BOURNS_SLIDER_45MM_LED" H 11750 8600 50  0001 C CNN
F 2 "geld_module:BOURNS_SLIDER_45MM_LED" H 11750 8600 50  0001 C CNN
F 3 "" H 11750 8600 50  0001 C CNN
	1    11750 8600
	1    0    0    1   
$EndComp
$Comp
L geld_2021-rescue:BOURNS_SLIDER_45MM_LED-0_geld_2020 POT?
U 1 1 5C3C6EA7
P 14150 8600
AR Path="/5C3072CD/5C3C6EA7" Ref="POT?"  Part="1" 
AR Path="/5C3072CA/5C3C6EA7" Ref="POT?"  Part="1" 
AR Path="/5C3C6EA7" Ref="POT8"  Part="1" 
F 0 "POT8" V 14770 8390 70  0000 R TNN
F 1 "BOURNS_SLIDER_45MM_LED" H 14150 8600 50  0001 C CNN
F 2 "geld_module:BOURNS_SLIDER_45MM_LED" H 14150 8600 50  0001 C CNN
F 3 "" H 14150 8600 50  0001 C CNN
	1    14150 8600
	1    0    0    1   
$EndComp
$Comp
L geld_2021-rescue:BOURNS_SLIDER_45MM_LED-0_geld_2020 POT?
U 1 1 5C3C6E8B
P 10950 8600
AR Path="/5C3072CD/5C3C6E8B" Ref="POT?"  Part="1" 
AR Path="/5C3072CA/5C3C6E8B" Ref="POT?"  Part="1" 
AR Path="/5C3C6E8B" Ref="POT4"  Part="1" 
F 0 "POT4" V 11570 8390 70  0000 R TNN
F 1 "BOURNS_SLIDER_45MM_LED" H 10950 8600 50  0001 C CNN
F 2 "geld_module:BOURNS_SLIDER_45MM_LED" H 10950 8600 50  0001 C CNN
F 3 "" H 10950 8600 50  0001 C CNN
	1    10950 8600
	1    0    0    1   
$EndComp
Wire Wire Line
	16900 7900 14550 7900
Wire Wire Line
	14550 7900 14550 7950
Wire Wire Line
	16900 7900 16900 7700
Wire Wire Line
	14550 7950 13750 7950
Wire Wire Line
	13750 7950 13750 8100
Connection ~ 14550 7950
Wire Wire Line
	14550 7950 14550 8100
Wire Wire Line
	13750 7950 12950 7950
Wire Wire Line
	12950 7950 12950 8100
Connection ~ 13750 7950
Wire Wire Line
	12950 7950 12150 7950
Wire Wire Line
	12150 7950 12150 8100
Connection ~ 12950 7950
Wire Wire Line
	12150 7950 11350 7950
Wire Wire Line
	11350 7950 11350 8100
Connection ~ 12150 7950
Wire Wire Line
	11350 7950 10550 7950
Wire Wire Line
	10550 7950 10550 8100
Connection ~ 11350 7950
Wire Wire Line
	10550 7950 9750 7950
Wire Wire Line
	9750 7950 9750 8100
Connection ~ 10550 7950
Wire Wire Line
	9750 7950 8950 7950
Wire Wire Line
	8950 7950 8950 8100
Connection ~ 9750 7950
Wire Wire Line
	19950 2900 19950 3000
Wire Wire Line
	19650 2900 19950 2900
Text Label 20950 3600 3    70   ~ 0
DMX-
Text Label 21100 3600 3    70   ~ 0
DMX+
Text HLabel 21100 4000 3    61   Input ~ 0
DMX+
Text HLabel 20950 4000 3    61   Input ~ 0
DMX-
Text HLabel 5800 14550 0    50   Input ~ 0
LBO_OUTPUT
Wire Wire Line
	9250 10000 9250 10850
Connection ~ 9250 10000
Wire Wire Line
	10050 10100 10050 10850
Connection ~ 10050 10100
Wire Wire Line
	8900 11250 9250 11250
Wire Wire Line
	9250 11250 9250 11150
Wire Wire Line
	9250 11250 10050 11250
Wire Wire Line
	10050 11250 10050 11150
Connection ~ 9250 11250
Connection ~ 10050 11250
Text HLabel 5800 14700 0    50   Input ~ 0
CHARGE
Text HLabel 5800 14850 0    50   Input ~ 0
DONE
$Comp
L geld_2021-rescue:SW_Push_LED-Switch-geld_2020-rescue SW4
U 1 1 5CD8B370
P 8850 14100
F 0 "SW4" H 8850 14493 50  0000 C CNN
F 1 "BUT1" H 8850 14400 50  0000 C CNN
F 2 "geld_module:CherryMX1A_LED" H 8850 14400 50  0001 C CNN
F 3 "" H 8850 14400 50  0001 C CNN
	1    8850 14100
	1    0    0    -1  
$EndComp
$Comp
L geld_2021-rescue:SW_Push_LED-Switch-geld_2020-rescue SW5
U 1 1 5CD8B777
P 9700 14100
F 0 "SW5" H 9700 14493 50  0000 C CNN
F 1 "BUT2" H 9700 14400 50  0000 C CNN
F 2 "geld_module:CherryMX1A_LED" H 9700 14400 50  0001 C CNN
F 3 "" H 9700 14400 50  0001 C CNN
	1    9700 14100
	1    0    0    -1  
$EndComp
$Comp
L geld_2021-rescue:SW_Push_LED-Switch-geld_2020-rescue SW6
U 1 1 5CD8B873
P 10500 14100
F 0 "SW6" H 10500 14493 50  0000 C CNN
F 1 "BUT3" H 10500 14400 50  0000 C CNN
F 2 "geld_module:CherryMX1A_LED" H 10500 14400 50  0001 C CNN
F 3 "" H 10500 14400 50  0001 C CNN
	1    10500 14100
	1    0    0    -1  
$EndComp
$Comp
L geld_2021-rescue:SW_Push_LED-Switch-geld_2020-rescue SW7
U 1 1 5CD8B95C
P 11500 14100
F 0 "SW7" H 11500 14493 50  0000 C CNN
F 1 "BUT4" H 11500 14400 50  0000 C CNN
F 2 "geld_module:CherryMX1A_LED" H 11500 14400 50  0001 C CNN
F 3 "" H 11500 14400 50  0001 C CNN
	1    11500 14100
	1    0    0    -1  
$EndComp
$Comp
L geld_2021-rescue:SW_Push_LED-Switch-geld_2020-rescue SW8
U 1 1 5CD8BA52
P 12300 14100
F 0 "SW8" H 12300 14493 50  0000 C CNN
F 1 "BUT5" H 12300 14400 50  0000 C CNN
F 2 "geld_module:CherryMX1A_LED" H 12300 14400 50  0001 C CNN
F 3 "" H 12300 14400 50  0001 C CNN
	1    12300 14100
	1    0    0    -1  
$EndComp
$Comp
L geld_2021-rescue:SW_Push_LED-Switch-geld_2020-rescue SW9
U 1 1 5CD8BB42
P 13100 14100
F 0 "SW9" H 13100 14493 50  0000 C CNN
F 1 "BUT6" H 13100 14400 50  0000 C CNN
F 2 "geld_module:CherryMX1A_LED" H 13100 14400 50  0001 C CNN
F 3 "" H 13100 14400 50  0001 C CNN
	1    13100 14100
	1    0    0    -1  
$EndComp
$Comp
L geld_2021-rescue:SW_Push_LED-Switch-geld_2020-rescue SW10
U 1 1 5CD8BC32
P 13900 14100
F 0 "SW10" H 13900 14493 50  0000 C CNN
F 1 "BUT7" H 13900 14400 50  0000 C CNN
F 2 "geld_module:CherryMX1A_LED" H 13900 14400 50  0001 C CNN
F 3 "" H 13900 14400 50  0001 C CNN
	1    13900 14100
	1    0    0    -1  
$EndComp
$Comp
L geld_2021-rescue:SW_Push_LED-Switch-geld_2020-rescue SW11
U 1 1 5CD8BD26
P 14750 14100
F 0 "SW11" H 14750 14493 50  0000 C CNN
F 1 "BUT8" H 14750 14400 50  0000 C CNN
F 2 "geld_module:CherryMX1A_LED" H 14750 14400 50  0001 C CNN
F 3 "" H 14750 14400 50  0001 C CNN
	1    14750 14100
	1    0    0    -1  
$EndComp
$Comp
L geld_2021-rescue:PCA9956-0_geld_2020 U6
U 1 1 5CE46981
P 16700 11000
F 0 "U6" H 17125 11123 50  0000 C CNN
F 1 "PCA9956" H 17125 11030 50  0000 C CNN
F 2 "geld_module:PCA9956_htssop(38)" H 16700 11000 50  0001 C CNN
F 3 "" H 16700 11000 50  0001 C CNN
	1    16700 11000
	1    0    0    -1  
$EndComp
Wire Wire Line
	8300 14100 8300 12550
Wire Wire Line
	8300 14100 8650 14100
Wire Wire Line
	9250 12650 9250 14100
Wire Wire Line
	9250 14100 9500 14100
Wire Wire Line
	10200 12750 10200 14100
Wire Wire Line
	10200 14100 10300 14100
Wire Wire Line
	11000 12850 11000 14100
Wire Wire Line
	11000 14100 11300 14100
Wire Wire Line
	17700 12850 18650 12850
Wire Wire Line
	18650 12850 18650 13550
Wire Wire Line
	15700 13550 15700 12950
Wire Wire Line
	15700 12950 12000 12950
Wire Wire Line
	12000 12950 12000 14100
Wire Wire Line
	12000 14100 12100 14100
Wire Wire Line
	17700 12750 18750 12750
Wire Wire Line
	18750 12750 18750 13650
Wire Wire Line
	15600 13650 15600 13050
Wire Wire Line
	15600 13050 12800 13050
Wire Wire Line
	12800 13050 12800 14100
Wire Wire Line
	12800 14100 12900 14100
Wire Wire Line
	17700 12650 18850 12650
Wire Wire Line
	18850 12650 18850 13750
Wire Wire Line
	15500 13750 15500 13150
Wire Wire Line
	15500 13150 13600 13150
Wire Wire Line
	13600 13150 13600 14100
Wire Wire Line
	13600 14100 13700 14100
Wire Wire Line
	18950 12550 18950 13850
Wire Wire Line
	15400 13850 15400 13250
Wire Wire Line
	15400 13250 14450 13250
Wire Wire Line
	14450 13250 14450 14100
Wire Wire Line
	14450 14100 14550 14100
Wire Wire Line
	17700 12550 18950 12550
Wire Wire Line
	16550 13200 16450 13200
Wire Wire Line
	16450 13100 16450 13200
Connection ~ 16450 13200
Wire Wire Line
	16450 13200 16450 14250
Wire Wire Line
	17700 13100 18550 13100
Wire Wire Line
	17700 13200 18550 13200
Wire Wire Line
	18550 13100 18550 13200
Connection ~ 18550 13200
Wire Wire Line
	18550 13200 18550 14250
Wire Wire Line
	19100 10450 19100 10550
Wire Wire Line
	19350 11450 19300 11450
Wire Wire Line
	16050 11750 16050 6800
Wire Wire Line
	16050 6800 8750 6800
Wire Wire Line
	8750 6800 8750 8100
Wire Wire Line
	9550 8100 9550 6900
Wire Wire Line
	9550 6900 15950 6900
Wire Wire Line
	15950 6900 15950 11850
Wire Wire Line
	15850 11950 15850 7000
Wire Wire Line
	15850 7000 10350 7000
Wire Wire Line
	10350 7000 10350 8100
Wire Wire Line
	11150 7100 15750 7100
Wire Wire Line
	15750 7100 15750 12050
Wire Wire Line
	11150 7100 11150 8100
Wire Wire Line
	15650 12150 15650 7200
Wire Wire Line
	15650 7200 11950 7200
Wire Wire Line
	11950 7200 11950 8100
Wire Wire Line
	12750 8100 12750 7300
Wire Wire Line
	12750 7300 15550 7300
Wire Wire Line
	15550 7300 15550 12250
Wire Wire Line
	15450 12350 15450 7400
Wire Wire Line
	15450 7400 13550 7400
Wire Wire Line
	13550 7400 13550 8100
Wire Wire Line
	16450 13100 16550 13100
Wire Wire Line
	11000 12850 16550 12850
Wire Wire Line
	10200 12750 16550 12750
Wire Wire Line
	9250 12650 16550 12650
Wire Wire Line
	8300 12550 16550 12550
Wire Wire Line
	15450 12350 16550 12350
Wire Wire Line
	15550 12250 16550 12250
Wire Wire Line
	15650 12150 16550 12150
Wire Wire Line
	15750 12050 16550 12050
Wire Wire Line
	15850 11950 16550 11950
Wire Wire Line
	15950 11850 16550 11850
Wire Wire Line
	16050 11750 16550 11750
Wire Wire Line
	15700 13550 18650 13550
Wire Wire Line
	15600 13650 18750 13650
Wire Wire Line
	15500 13750 18850 13750
Wire Wire Line
	15400 13850 18950 13850
Wire Wire Line
	14350 9200 16800 9200
Wire Wire Line
	16550 11550 16450 11550
Wire Wire Line
	16450 11550 16450 11650
Connection ~ 16450 13100
Wire Wire Line
	16250 11600 16250 11650
Connection ~ 16450 11550
Wire Wire Line
	16250 11150 16550 11150
$Comp
L geld_2021-rescue:R-Device-geld_2020-rescue R29
U 1 1 5EF3BA50
P 19300 10850
AR Path="/5EF3BA50" Ref="R29"  Part="1" 
AR Path="/5C2E86C6/5EF3BA50" Ref="R?"  Part="1" 
AR Path="/5C3072CA/5EF3BA50" Ref="R?"  Part="1" 
F 0 "R29" H 19100 10900 59  0000 L BNN
F 1 "10K" H 19150 10720 59  0000 L BNN
F 2 "Resistor_SMD:R_0603_1608Metric_Pad1.05x0.95mm_HandSolder" H 19300 10850 50  0001 C CNN
F 3 "" H 19300 10850 50  0001 C CNN
	1    19300 10850
	-1   0    0    1   
$EndComp
Connection ~ 19300 11450
Wire Wire Line
	19300 10550 19100 10550
Connection ~ 19100 10550
Wire Wire Line
	19100 10550 19100 11150
Wire Wire Line
	16550 11250 16450 11250
Wire Wire Line
	16450 11250 16450 11350
Wire Wire Line
	16550 11350 16450 11350
Connection ~ 16450 11350
Wire Wire Line
	16450 11350 16450 11450
Wire Wire Line
	16550 11450 16450 11450
Connection ~ 16450 11450
Wire Wire Line
	16450 11450 16450 11550
Wire Wire Line
	16250 11650 16450 11650
Connection ~ 16450 11650
Wire Wire Line
	16450 11650 16450 13100
$Comp
L geld_2021-rescue:3.3V-0_geld_2020 #SUPPLY?
U 1 1 602D25CD
P 18250 8800
AR Path="/5C3072CD/602D25CD" Ref="#SUPPLY?"  Part="1" 
AR Path="/5C3072CA/602D25CD" Ref="#SUPPLY?"  Part="1" 
AR Path="/602D25CD" Ref="#SUPPLY0109"  Part="1" 
F 0 "#SUPPLY0109" H 18250 8800 50  0001 C CNN
F 1 "3.3V" H 18250 8910 59  0000 C BNN
F 2 "" H 18250 8800 50  0001 C CNN
F 3 "" H 18250 8800 50  0001 C CNN
	1    18250 8800
	-1   0    0    -1  
$EndComp
Wire Wire Line
	18000 8900 18250 8900
Wire Wire Line
	18250 8900 18250 8800
Wire Wire Line
	17700 12450 18900 12450
Wire Wire Line
	18900 12450 18900 9400
Wire Wire Line
	18800 12350 17700 12350
Wire Wire Line
	17700 12250 18700 12250
Wire Wire Line
	18700 12250 18700 9200
Wire Wire Line
	18600 12150 17700 12150
Wire Wire Line
	17700 12050 18500 12050
Wire Wire Line
	18400 11950 17700 11950
Wire Wire Line
	17700 11850 18300 11850
Wire Wire Line
	17700 11750 18200 11750
Wire Wire Line
	17700 11150 19100 11150
Wire Wire Line
	17700 11250 19400 11250
Wire Wire Line
	17700 11350 19400 11350
Wire Wire Line
	17700 11450 19300 11450
Wire Wire Line
	17700 11550 19300 11550
Wire Wire Line
	19300 11000 19300 11450
Wire Wire Line
	7900 14400 8500 14400
Wire Wire Line
	8500 14400 8500 14000
Wire Wire Line
	8500 14000 8650 14000
Wire Wire Line
	7800 14500 9400 14500
Wire Wire Line
	9400 14500 9400 14000
Wire Wire Line
	9400 14000 9500 14000
Wire Wire Line
	7700 14600 10100 14600
Wire Wire Line
	10100 14600 10100 14000
Wire Wire Line
	10100 14000 10300 14000
Wire Wire Line
	11300 14000 10900 14000
Wire Wire Line
	10900 14000 10900 14700
Wire Wire Line
	10900 14700 7600 14700
Wire Wire Line
	7600 14700 7600 12750
Wire Wire Line
	7500 14800 11900 14800
Wire Wire Line
	11900 14800 11900 14000
Wire Wire Line
	11900 14000 12100 14000
Wire Wire Line
	12900 14000 12700 14000
Wire Wire Line
	12700 14000 12700 14900
Wire Wire Line
	12700 14900 7400 14900
Wire Wire Line
	13700 14000 13500 14000
Wire Wire Line
	13500 14000 13500 15000
Wire Wire Line
	13500 15000 7300 15000
Wire Wire Line
	7200 15100 14350 15100
Wire Wire Line
	14350 15100 14350 14000
Wire Wire Line
	14350 14000 14550 14000
Wire Wire Line
	14950 14000 15150 14000
Wire Wire Line
	15150 14000 15150 14400
Wire Wire Line
	15150 14400 14250 14400
Wire Wire Line
	14250 14400 14250 14000
Wire Wire Line
	14250 14000 14100 14000
Wire Wire Line
	13300 14000 13400 14000
Wire Wire Line
	13400 14000 13400 14400
Wire Wire Line
	13400 14400 14250 14400
Connection ~ 14250 14400
Wire Wire Line
	12500 14000 12600 14000
Wire Wire Line
	12600 14000 12600 14400
Wire Wire Line
	12600 14400 13400 14400
Connection ~ 13400 14400
Wire Wire Line
	11700 14000 11800 14000
Wire Wire Line
	11800 14000 11800 14400
Wire Wire Line
	11800 14400 12600 14400
Connection ~ 12600 14400
Wire Wire Line
	10700 14000 10800 14000
Wire Wire Line
	10800 14000 10800 14400
Wire Wire Line
	10800 14400 11800 14400
Connection ~ 11800 14400
Wire Wire Line
	9900 14000 10000 14000
Wire Wire Line
	10000 14000 10000 14400
Wire Wire Line
	10000 14400 10800 14400
Connection ~ 10800 14400
Wire Wire Line
	9050 14000 9150 14000
Wire Wire Line
	9150 14000 9150 14400
Wire Wire Line
	9150 14400 10000 14400
Connection ~ 10000 14400
Wire Wire Line
	9050 14100 9050 14300
Wire Wire Line
	9050 14300 9900 14300
Wire Wire Line
	9900 14300 9900 14100
Wire Wire Line
	9900 14300 10700 14300
Wire Wire Line
	10700 14300 10700 14100
Connection ~ 9900 14300
Wire Wire Line
	10700 14300 11700 14300
Wire Wire Line
	11700 14300 11700 14100
Connection ~ 10700 14300
Wire Wire Line
	11700 14300 12500 14300
Wire Wire Line
	12500 14300 12500 14100
Connection ~ 11700 14300
Wire Wire Line
	12500 14300 13300 14300
Wire Wire Line
	13300 14300 13300 14100
Connection ~ 12500 14300
Wire Wire Line
	13300 14300 14100 14300
Wire Wire Line
	14100 14300 14100 14100
Connection ~ 13300 14300
Connection ~ 14100 14300
$Comp
L geld_2021-rescue:3.3V-0_geld_2020 #SUPPLY?
U 1 1 641F1BD2
P 15450 14150
AR Path="/5C3072CD/641F1BD2" Ref="#SUPPLY?"  Part="1" 
AR Path="/5C3072CA/641F1BD2" Ref="#SUPPLY?"  Part="1" 
AR Path="/641F1BD2" Ref="#SUPPLY0110"  Part="1" 
F 0 "#SUPPLY0110" H 15450 14150 50  0001 C CNN
F 1 "3.3V" H 15450 14260 59  0000 C BNN
F 2 "" H 15450 14150 50  0001 C CNN
F 3 "" H 15450 14150 50  0001 C CNN
	1    15450 14150
	-1   0    0    -1  
$EndComp
Wire Wire Line
	15450 14150 15450 14300
Wire Wire Line
	15450 14300 14950 14300
$Comp
L geld_2021-rescue:C-Device-geld_2020-rescue C?
U 1 1 64581A72
P 19750 10950
AR Path="/5C3072CD/64581A72" Ref="C?"  Part="1" 
AR Path="/5C3072CA/64581A72" Ref="C?"  Part="1" 
AR Path="/64581A72" Ref="C26"  Part="1" 
F 0 "C26" H 19810 11065 59  0000 L BNN
F 1 "100nF" H 19810 10865 59  0000 L BNN
F 2 "Capacitor_SMD:C_0603_1608Metric_Pad1.05x0.95mm_HandSolder" H 19750 10950 50  0001 C CNN
F 3 "" H 19750 10950 50  0001 C CNN
	1    19750 10950
	-1   0    0    -1  
$EndComp
Wire Wire Line
	4800 13900 4400 13900
Wire Wire Line
	4800 12400 4400 12400
Wire Wire Line
	4400 12400 4400 12200
$Comp
L geld_2021-rescue:3.3V-0_geld_2020 #SUPPLY?
U 1 1 649FFC01
P 4400 12200
AR Path="/5C3072CD/649FFC01" Ref="#SUPPLY?"  Part="1" 
AR Path="/5C3072CA/649FFC01" Ref="#SUPPLY?"  Part="1" 
AR Path="/649FFC01" Ref="#SUPPLY0111"  Part="1" 
F 0 "#SUPPLY0111" H 4400 12200 50  0001 C CNN
F 1 "3.3V" H 4400 12310 59  0000 C BNN
F 2 "" H 4400 12200 50  0001 C CNN
F 3 "" H 4400 12200 50  0001 C CNN
	1    4400 12200
	-1   0    0    -1  
$EndComp
Wire Wire Line
	6200 13750 6350 13750
Wire Wire Line
	6350 13750 6350 14550
Wire Wire Line
	6350 14550 5800 14550
Wire Wire Line
	6200 13650 6450 13650
Wire Wire Line
	6450 13650 6450 14700
Wire Wire Line
	6450 14700 5800 14700
Wire Wire Line
	6200 13550 6550 13550
Wire Wire Line
	6550 13550 6550 14850
Wire Wire Line
	6550 14850 5800 14850
Wire Wire Line
	6200 13250 6500 13250
Wire Wire Line
	6500 13250 6500 11850
Wire Wire Line
	6500 11850 1350 11850
Wire Wire Line
	1350 11850 1350 12750
Wire Wire Line
	1350 12750 1500 12750
Wire Wire Line
	6200 13350 6600 13350
Wire Wire Line
	6600 13350 6600 11750
Wire Wire Line
	6700 11650 6700 13450
Wire Wire Line
	6700 13450 6200 13450
$Comp
L geld_2021-rescue:GND-0_geld_2020 #GND?
U 1 1 650F1C20
P 4400 14750
AR Path="/5C3072CD/650F1C20" Ref="#GND?"  Part="1" 
AR Path="/5C3072CA/650F1C20" Ref="#GND?"  Part="1" 
AR Path="/650F1C20" Ref="#GND0126"  Part="1" 
F 0 "#GND0126" H 4400 14750 50  0001 C CNN
F 1 "GND" H 4400 14740 59  0000 C TNN
F 2 "" H 4400 14750 50  0001 C CNN
F 3 "" H 4400 14750 50  0001 C CNN
	1    4400 14750
	-1   0    0    -1  
$EndComp
$Comp
L geld_2021-rescue:GND-0_geld_2020 #GND?
U 1 1 650F1D0D
P 2200 14600
AR Path="/5C3072CD/650F1D0D" Ref="#GND?"  Part="1" 
AR Path="/5C3072CA/650F1D0D" Ref="#GND?"  Part="1" 
AR Path="/650F1D0D" Ref="#GND0127"  Part="1" 
F 0 "#GND0127" H 2200 14600 50  0001 C CNN
F 1 "GND" H 2200 14590 59  0000 C TNN
F 2 "" H 2200 14600 50  0001 C CNN
F 3 "" H 2200 14600 50  0001 C CNN
	1    2200 14600
	-1   0    0    -1  
$EndComp
Wire Wire Line
	2200 13500 2500 13500
Connection ~ 2200 13500
Text HLabel 4000 12850 0    50   Input ~ 0
SDA
Text HLabel 4000 12950 0    50   Input ~ 0
SCL
Wire Wire Line
	4800 12850 4000 12850
Wire Wire Line
	4800 12950 4000 12950
Wire Wire Line
	4800 13500 4400 13500
Wire Wire Line
	4400 13500 4400 13600
Connection ~ 4400 13900
Wire Wire Line
	4800 13600 4400 13600
Connection ~ 4400 13600
Wire Wire Line
	4400 13600 4400 13700
Wire Wire Line
	4800 13700 4400 13700
Connection ~ 4400 13700
Wire Wire Line
	4400 13700 4400 13900
Wire Wire Line
	8650 2550 8650 2850
$Comp
L geld_2021-rescue:R-Device-geld_2020-rescue R15
U 1 1 65AAE567
P 4100 12550
AR Path="/65AAE567" Ref="R15"  Part="1" 
AR Path="/5C2E86C6/65AAE567" Ref="R?"  Part="1" 
AR Path="/5C3072CA/65AAE567" Ref="R?"  Part="1" 
F 0 "R15" H 3950 12609 59  0000 L BNN
F 1 "1K" H 3950 12420 59  0000 L BNN
F 2 "Resistor_SMD:R_0603_1608Metric_Pad1.05x0.95mm_HandSolder" H 4100 12550 50  0001 C CNN
F 3 "" H 4100 12550 50  0001 C CNN
	1    4100 12550
	-1   0    0    1   
$EndComp
$Comp
L geld_2021-rescue:3.3V-0_geld_2020 #SUPPLY?
U 1 1 65AAEBC8
P 4100 12200
AR Path="/5C3072CD/65AAEBC8" Ref="#SUPPLY?"  Part="1" 
AR Path="/5C3072CA/65AAEBC8" Ref="#SUPPLY?"  Part="1" 
AR Path="/65AAEBC8" Ref="#SUPPLY0112"  Part="1" 
F 0 "#SUPPLY0112" H 4100 12200 50  0001 C CNN
F 1 "3.3V" H 4100 12310 59  0000 C BNN
F 2 "" H 4100 12200 50  0001 C CNN
F 3 "" H 4100 12200 50  0001 C CNN
	1    4100 12200
	-1   0    0    -1  
$EndComp
Wire Wire Line
	4800 13300 4100 13300
Wire Wire Line
	4100 13300 4100 12700
NoConn ~ 4800 13100
NoConn ~ 4800 13200
$Comp
L geld_2021-rescue:SW_Push_LED-Switch-geld_2020-rescue SW3
U 1 1 6609EE98
P 1700 12850
F 0 "SW3" H 1700 13243 50  0000 C CNN
F 1 "UBUT0" H 1700 13150 50  0000 C CNN
F 2 "geld_module:CherryMX1A_LED" H 1700 13150 50  0001 C CNN
F 3 "" H 1700 13150 50  0001 C CNN
	1    1700 12850
	1    0    0    -1  
$EndComp
$Comp
L geld_2021-rescue:SW_Push_LED-Switch-geld_2020-rescue SW2
U 1 1 6609F2A7
P 1600 13400
F 0 "SW2" H 1600 13793 50  0000 C CNN
F 1 "UBUT1" H 1600 13700 50  0000 C CNN
F 2 "geld_module:CherryMX1A_LED" H 1600 13700 50  0001 C CNN
F 3 "" H 1600 13700 50  0001 C CNN
	1    1600 13400
	1    0    0    -1  
$EndComp
Wire Wire Line
	1900 12750 2200 12750
Wire Wire Line
	2200 13300 1800 13300
Connection ~ 2200 13300
Wire Wire Line
	2200 13300 2200 13500
Wire Wire Line
	1400 13300 1250 13300
Wire Wire Line
	1250 11750 1250 13300
Wire Wire Line
	2200 12750 2200 13150
Wire Wire Line
	2900 13150 3100 13150
Wire Wire Line
	3100 13150 3100 11650
Wire Wire Line
	3100 11650 6700 11650
Wire Wire Line
	2500 13150 2200 13150
Connection ~ 2200 13150
Wire Wire Line
	2200 13150 2200 13300
$Comp
L geld_2021-rescue:MCP23017_SO_0-0_geld_2020 U2
U 1 1 625C1084
P 5500 13150
F 0 "U2" H 5500 14223 50  0000 C CNN
F 1 "MCP23017_SO_0" H 5500 14130 50  0000 C CNN
F 2 "Package_SO:SOIC-28W_7.5x17.9mm_P1.27mm" H 5700 12150 50  0001 L CNN
F 3 "http://ww1.microchip.com/downloads/en/DeviceDoc/20001952C.pdf" H 5700 12050 50  0001 L CNN
	1    5500 13150
	1    0    0    -1  
$EndComp
NoConn ~ 6200 13850
NoConn ~ 6200 13950
Wire Wire Line
	2150 11400 2150 10950
Wire Wire Line
	2250 11500 2250 10950
Text HLabel 2900 10950 1    50   Input ~ 0
LED_UBUT0
Text HLabel 2250 10950 1    50   Input ~ 0
LED_UBUT1
Text HLabel 2150 10950 1    50   Input ~ 0
LED_UBUT2
$Comp
L geld_2021-rescue:LED-Device-geld_2020-rescue D5
U 1 1 66F8FCDA
P 2750 12700
F 0 "D5" H 2800 12600 50  0000 C CNN
F 1 "LED_ENCODER" H 2700 12800 50  0000 C CNN
F 2 "LED_THT:LED_D3.0mm" H 2750 12700 50  0001 C CNN
F 3 "~" H 2750 12700 50  0001 C CNN
	1    2750 12700
	-1   0    0    1   
$EndComp
Wire Wire Line
	2250 11500 1450 11500
Wire Wire Line
	1450 11500 1450 12850
Wire Wire Line
	1450 12850 1500 12850
Wire Wire Line
	2150 11400 1150 11400
Wire Wire Line
	1150 11400 1150 13400
Wire Wire Line
	1150 13400 1400 13400
Wire Wire Line
	2600 10950 2600 11950
Wire Wire Line
	2050 11950 2050 12350
Wire Wire Line
	2050 12850 1900 12850
Wire Wire Line
	2050 12850 2050 13400
Wire Wire Line
	2050 13400 1800 13400
Connection ~ 2050 12850
Wire Wire Line
	2050 11950 2600 11950
Connection ~ 2050 12350
Wire Wire Line
	2050 12350 2050 12850
Wire Wire Line
	2350 12350 2350 12700
Wire Wire Line
	2350 12700 2600 12700
Wire Wire Line
	2050 12350 2350 12350
Wire Wire Line
	2900 12700 2900 10950
Text HLabel 17750 10450 0    50   Input ~ 0
LED_UBUT0
Text HLabel 17750 10300 0    50   Input ~ 0
LED_UBUT1
Text HLabel 17750 10150 0    50   Input ~ 0
LED_UBUT2
Wire Wire Line
	18200 10450 17750 10450
Wire Wire Line
	18200 10450 18200 11750
Wire Wire Line
	18300 10300 17750 10300
Wire Wire Line
	18300 10300 18300 11850
Wire Wire Line
	18400 10150 17750 10150
Wire Wire Line
	18400 10150 18400 11950
Text Label 17850 10450 0    50   ~ 0
LED23
Text Label 17850 10300 0    50   ~ 0
LED22
Text Label 17850 10150 0    50   ~ 0
LED21
Wire Wire Line
	8900 5350 10700 5350
Wire Wire Line
	22350 3050 21650 3050
Wire Wire Line
	22350 3050 22350 4050
Wire Wire Line
	7200 12350 6200 12350
Wire Wire Line
	7200 12350 7200 15100
Wire Wire Line
	6200 12450 7300 12450
Wire Wire Line
	7300 12450 7300 15000
Wire Wire Line
	7400 12550 6200 12550
Wire Wire Line
	7400 12550 7400 14900
Wire Wire Line
	6200 12650 7500 12650
Wire Wire Line
	7500 12650 7500 14800
Wire Wire Line
	6200 12750 7600 12750
Wire Wire Line
	6200 12850 7700 12850
Wire Wire Line
	7700 12850 7700 14600
Wire Wire Line
	6200 12950 7800 12950
Wire Wire Line
	7800 12950 7800 14500
Wire Wire Line
	6200 13050 7900 13050
Wire Wire Line
	7900 13050 7900 14400
Wire Wire Line
	4400 13900 4400 14650
Wire Wire Line
	4400 12750 4400 12800
Connection ~ 4400 13500
$Comp
L geld_2021-rescue:C-Device-geld_2020-rescue C6
U 1 1 5E81C055
P 4400 12650
AR Path="/5E81C055" Ref="C6"  Part="1" 
AR Path="/5C2E892E/5E81C055" Ref="C?"  Part="1" 
AR Path="/5C3072D0/5E81C055" Ref="C?"  Part="1" 
AR Path="/5C3072CA/5E81C055" Ref="C?"  Part="1" 
F 0 "C6" V 4310 12699 50  0000 C CNN
F 1 "0.1uF" V 4490 12699 50  0000 C CNN
F 2 "Capacitor_SMD:C_0603_1608Metric_Pad1.05x0.95mm_HandSolder" H 4400 12650 50  0001 C CNN
F 3 "" H 4400 12650 50  0001 C CNN
	1    4400 12650
	1    0    0    -1  
$EndComp
Connection ~ 4400 12400
Text HLabel 2950 4550 0    50   Input ~ 0
FLASH_CS
Text Label 3550 4550 0    50   ~ 0
FLASH_CS
Wire Wire Line
	18500 9000 18000 9000
Wire Wire Line
	18500 9000 18500 12050
Wire Wire Line
	18000 9100 18600 9100
Wire Wire Line
	18600 9100 18600 12150
Wire Wire Line
	18700 9200 18000 9200
Wire Wire Line
	18000 9300 18800 9300
Wire Wire Line
	18800 9300 18800 12350
Wire Wire Line
	18000 9400 18900 9400
$Comp
L geld_2021-rescue:MCP1525-0_geld_2020 M1
U 1 1 5F7BB12C
P 4150 8950
F 0 "M1" H 4550 8450 45  0001 C CNN
F 1 "MCP1525" H 4200 8850 45  0001 C CNN
F 2 "Package_TO_SOT_SMD:SOT-23_Handsoldering" H 4500 8850 20  0001 C CNN
F 3 "" H 4150 8950 50  0001 C CNN
	1    4150 8950
	1    0    0    -1  
$EndComp
$Comp
L geld_2021-rescue:C-Device-geld_2020-rescue C?
U 1 1 5F90EBC7
P 3750 9350
AR Path="/5C3072CD/5F90EBC7" Ref="C?"  Part="1" 
AR Path="/5C3072CA/5F90EBC7" Ref="C?"  Part="1" 
AR Path="/5F90EBC7" Ref="C5"  Part="1" 
F 0 "C5" H 3600 9500 59  0000 L BNN
F 1 "100nF" H 3450 9300 59  0000 L BNN
F 2 "Capacitor_SMD:C_0603_1608Metric_Pad1.05x0.95mm_HandSolder" H 3750 9350 50  0001 C CNN
F 3 "" H 3750 9350 50  0001 C CNN
	1    3750 9350
	1    0    0    1   
$EndComp
Wire Wire Line
	3950 9900 3750 9900
Wire Wire Line
	3750 9900 3750 9500
Connection ~ 3950 9900
Wire Wire Line
	3950 9900 3950 9950
Wire Wire Line
	3750 9200 3950 9200
Wire Wire Line
	3750 9200 3450 9200
Connection ~ 3750 9200
Wire Wire Line
	4750 9200 4750 9500
Wire Wire Line
	4750 9800 4750 9950
Wire Wire Line
	4750 9200 5050 9200
Wire Wire Line
	5050 9200 5050 10200
Wire Wire Line
	5050 10200 6250 10200
Connection ~ 4750 9200
Connection ~ 6250 10200
Wire Wire Line
	19300 11550 19300 12300
Wire Wire Line
	19300 10550 19750 10550
Wire Wire Line
	19750 10550 19750 10800
Connection ~ 19300 10550
Wire Wire Line
	19750 11100 19750 12300
Wire Wire Line
	14350 8100 14350 7500
Wire Wire Line
	14350 7500 15350 7500
Wire Wire Line
	15350 7500 15350 12450
Wire Wire Line
	15350 12450 16550 12450
$Comp
L geld_2021-rescue:R-Device-geld_2020-rescue R2
U 1 1 5CA99349
P 2200 4400
AR Path="/5CA99349" Ref="R2"  Part="1" 
AR Path="/5C2E86C6/5CA99349" Ref="R?"  Part="1" 
AR Path="/5C3072CA/5CA99349" Ref="R?"  Part="1" 
F 0 "R2" H 2050 4459 59  0000 L BNN
F 1 "4K7" H 2050 4270 59  0000 L BNN
F 2 "Resistor_SMD:R_0603_1608Metric_Pad1.05x0.95mm_HandSolder" H 2200 4400 50  0001 C CNN
F 3 "" H 2200 4400 50  0001 C CNN
	1    2200 4400
	-1   0    0    1   
$EndComp
$Comp
L geld_2021-rescue:R-Device-geld_2020-rescue R1
U 1 1 5CA99493
P 2000 4400
AR Path="/5CA99493" Ref="R1"  Part="1" 
AR Path="/5C2E86C6/5CA99493" Ref="R?"  Part="1" 
AR Path="/5C3072CA/5CA99493" Ref="R?"  Part="1" 
F 0 "R1" H 1850 4459 59  0000 L BNN
F 1 "4K7" H 1850 4270 59  0000 L BNN
F 2 "Resistor_SMD:R_0603_1608Metric_Pad1.05x0.95mm_HandSolder" H 2000 4400 50  0001 C CNN
F 3 "" H 2000 4400 50  0001 C CNN
	1    2000 4400
	-1   0    0    1   
$EndComp
Wire Wire Line
	2000 4750 2000 4550
Connection ~ 2000 4750
Wire Wire Line
	2200 4550 2200 4850
Connection ~ 2200 4850
$Comp
L geld_2021-rescue:3.3V-0_geld_2020 #SUPPLY0116
U 1 1 5CDE9C94
P 2000 3700
AR Path="/5CDE9C94" Ref="#SUPPLY0116"  Part="1" 
AR Path="/5C2E86C6/5CDE9C94" Ref="#SUPPLY?"  Part="1" 
AR Path="/5C3072CA/5CDE9C94" Ref="#SUPPLY?"  Part="1" 
F 0 "#SUPPLY0116" H 2000 3700 50  0001 C CNN
F 1 "3.3V" H 1960 3840 59  0000 L BNN
F 2 "" H 2000 3700 50  0001 C CNN
F 3 "" H 2000 3700 50  0001 C CNN
	1    2000 3700
	1    0    0    -1  
$EndComp
Wire Wire Line
	2200 4000 2000 4000
Connection ~ 2000 4000
Wire Wire Line
	2000 4000 2000 3700
Wire Wire Line
	14950 2650 14950 2500
Wire Wire Line
	14950 2500 15200 2500
Wire Wire Line
	14950 14100 14950 14300
Connection ~ 14950 14300
Wire Wire Line
	14100 14300 14950 14300
NoConn ~ 6100 5350
NoConn ~ 6100 5250
NoConn ~ 6100 5150
NoConn ~ 6100 5050
NoConn ~ 6100 4950
NoConn ~ 6100 4850
NoConn ~ 6100 4750
NoConn ~ 6100 4650
NoConn ~ 6100 4550
NoConn ~ 6100 4350
NoConn ~ 6100 4250
NoConn ~ 6100 4150
NoConn ~ 6100 4050
NoConn ~ 6100 3650
NoConn ~ 6100 3750
NoConn ~ 6100 3450
NoConn ~ 4300 5350
NoConn ~ 4300 5250
NoConn ~ 4300 3450
Wire Wire Line
	17350 2100 17950 2100
Wire Wire Line
	19950 3000 20250 3000
Connection ~ 15150 14400
Wire Wire Line
	15150 14400 15150 15000
$Comp
L geld_2021-rescue:GND-0_geld_2020 #GND0105
U 1 1 6085DB8E
P 15150 15100
F 0 "#GND0105" H 15150 15100 50  0001 C CNN
F 1 "GND" H 15150 14973 59  0000 C CNN
F 2 "" H 15150 15100 50  0001 C CNN
F 3 "" H 15150 15100 50  0001 C CNN
	1    15150 15100
	1    0    0    -1  
$EndComp
$Comp
L geld_2021-rescue:GND-0_geld_2020 #GND0106
U 1 1 60913450
P 16450 14350
F 0 "#GND0106" H 16450 14350 50  0001 C CNN
F 1 "GND" H 16450 14223 59  0000 C CNN
F 2 "" H 16450 14350 50  0001 C CNN
F 3 "" H 16450 14350 50  0001 C CNN
	1    16450 14350
	1    0    0    -1  
$EndComp
$Comp
L geld_2021-rescue:GND-0_geld_2020 #GND0108
U 1 1 609138DA
P 18550 14350
F 0 "#GND0108" H 18550 14350 50  0001 C CNN
F 1 "GND" H 18550 14223 59  0000 C CNN
F 2 "" H 18550 14350 50  0001 C CNN
F 3 "" H 18550 14350 50  0001 C CNN
	1    18550 14350
	1    0    0    -1  
$EndComp
$Comp
L geld_2021-rescue:GND-0_geld_2020 #GND0109
U 1 1 6096F2F7
P 19300 12400
F 0 "#GND0109" H 19300 12400 50  0001 C CNN
F 1 "GND" H 19300 12273 59  0000 C CNN
F 2 "" H 19300 12400 50  0001 C CNN
F 3 "" H 19300 12400 50  0001 C CNN
	1    19300 12400
	1    0    0    -1  
$EndComp
$Comp
L geld_2021-rescue:GND-0_geld_2020 #GND0110
U 1 1 60A800F2
P 19750 12400
F 0 "#GND0110" H 19750 12400 50  0001 C CNN
F 1 "GND" H 19750 12273 59  0000 C CNN
F 2 "" H 19750 12400 50  0001 C CNN
F 3 "" H 19750 12400 50  0001 C CNN
	1    19750 12400
	1    0    0    -1  
$EndComp
$Comp
L geld_2021-rescue:GND-0_geld_2020 #GND0111
U 1 1 60A81D66
P 8900 11350
F 0 "#GND0111" H 8900 11350 50  0001 C CNN
F 1 "GND" H 8900 11223 59  0000 C CNN
F 2 "" H 8900 11350 50  0001 C CNN
F 3 "" H 8900 11350 50  0001 C CNN
	1    8900 11350
	1    0    0    -1  
$EndComp
$Comp
L geld_2021-rescue:3.3V-0_geld_2020 #SUPPLY?
U 1 1 60C4B5C0
P 19100 10450
AR Path="/5C3072CD/60C4B5C0" Ref="#SUPPLY?"  Part="1" 
AR Path="/5C3072CA/60C4B5C0" Ref="#SUPPLY?"  Part="1" 
AR Path="/60C4B5C0" Ref="#SUPPLY0104"  Part="1" 
F 0 "#SUPPLY0104" H 19100 10450 50  0001 C CNN
F 1 "3.3V" H 19100 10600 59  0000 C BNN
F 2 "" H 19100 10450 50  0001 C CNN
F 3 "" H 19100 10450 50  0001 C CNN
	1    19100 10450
	-1   0    0    -1  
$EndComp
Wire Wire Line
	19300 10550 19300 10700
$Comp
L geld_2021-rescue:C-Device-geld_2020-rescue C?
U 1 1 60E0EA54
P 10850 10950
AR Path="/5C3072CD/60E0EA54" Ref="C?"  Part="1" 
AR Path="/5C3072CA/60E0EA54" Ref="C?"  Part="1" 
AR Path="/60E0EA54" Ref="C10"  Part="1" 
F 0 "C10" H 10910 11065 59  0000 L BNN
F 1 "100nF" H 10910 10865 59  0000 L BNN
F 2 "Capacitor_SMD:C_0603_1608Metric_Pad1.05x0.95mm_HandSolder" H 10850 10950 50  0001 C CNN
F 3 "" H 10850 10950 50  0001 C CNN
	1    10850 10950
	-1   0    0    -1  
$EndComp
Wire Wire Line
	14850 11100 14850 11250
Wire Wire Line
	14050 11100 14050 11250
Connection ~ 14050 11250
Wire Wire Line
	14050 11250 14850 11250
Wire Wire Line
	13250 11100 13250 11250
Connection ~ 13250 11250
Wire Wire Line
	13250 11250 14050 11250
Wire Wire Line
	12450 11100 12450 11250
Connection ~ 12450 11250
Wire Wire Line
	12450 11250 13250 11250
Wire Wire Line
	11650 11100 11650 11250
Connection ~ 11650 11250
Wire Wire Line
	11650 11250 12450 11250
Wire Wire Line
	10850 11100 10850 11250
Wire Wire Line
	10050 11250 10850 11250
Connection ~ 10850 11250
Wire Wire Line
	10850 11250 11650 11250
$Comp
L geld_2021-rescue:C-Device-geld_2020-rescue C?
U 1 1 613487A6
P 10050 11000
AR Path="/5C3072CD/613487A6" Ref="C?"  Part="1" 
AR Path="/5C3072CA/613487A6" Ref="C?"  Part="1" 
AR Path="/613487A6" Ref="C9"  Part="1" 
F 0 "C9" H 10110 11115 59  0000 L BNN
F 1 "100nF" H 10110 10915 59  0000 L BNN
F 2 "Capacitor_SMD:C_0603_1608Metric_Pad1.05x0.95mm_HandSolder" H 10050 11000 50  0001 C CNN
F 3 "" H 10050 11000 50  0001 C CNN
	1    10050 11000
	-1   0    0    -1  
$EndComp
$Comp
L geld_2021-rescue:C-Device-geld_2020-rescue C?
U 1 1 61348D9A
P 9250 11000
AR Path="/5C3072CD/61348D9A" Ref="C?"  Part="1" 
AR Path="/5C3072CA/61348D9A" Ref="C?"  Part="1" 
AR Path="/61348D9A" Ref="C4"  Part="1" 
F 0 "C4" H 9310 11115 59  0000 L BNN
F 1 "100nF" H 9310 10915 59  0000 L BNN
F 2 "Capacitor_SMD:C_0603_1608Metric_Pad1.05x0.95mm_HandSolder" H 9250 11000 50  0001 C CNN
F 3 "" H 9250 11000 50  0001 C CNN
	1    9250 11000
	-1   0    0    -1  
$EndComp
$Comp
L geld_2021-rescue:R-Device-geld_2020-rescue R28
U 1 1 5EE53BD7
P 16250 11450
AR Path="/5EE53BD7" Ref="R28"  Part="1" 
AR Path="/5C2E86C6/5EE53BD7" Ref="R?"  Part="1" 
AR Path="/5C3072CA/5EE53BD7" Ref="R?"  Part="1" 
F 0 "R28" H 16100 11509 59  0000 L BNN
F 1 "3K3" H 16100 11320 59  0000 L BNN
F 2 "Resistor_SMD:R_0603_1608Metric_Pad1.05x0.95mm_HandSolder" H 16250 11450 50  0001 C CNN
F 3 "" H 16250 11450 50  0001 C CNN
	1    16250 11450
	-1   0    0    1   
$EndComp
Wire Wire Line
	16250 11150 16250 11300
$Comp
L geld_2021-rescue:GND-0_geld_2020 #GND0112
U 1 1 614014AF
P 5250 11400
F 0 "#GND0112" H 5250 11400 50  0001 C CNN
F 1 "GND" H 5250 11273 59  0000 C CNN
F 2 "" H 5250 11400 50  0001 C CNN
F 3 "" H 5250 11400 50  0001 C CNN
	1    5250 11400
	1    0    0    -1  
$EndComp
$Comp
L geld_2021-rescue:VDDA-0_geld_2020 #0101
U 1 1 61575C60
P 6250 9600
F 0 "#0101" H 6300 9650 50  0001 C CNN
F 1 "VDDA" H 6313 9663 59  0000 L CNN
F 2 "" H 6250 9600 50  0001 C CNN
F 3 "" H 6250 9600 50  0001 C CNN
	1    6250 9600
	1    0    0    -1  
$EndComp
$Comp
L geld_2021-rescue:3.3V-0_geld_2020 #SUPPLY0105
U 1 1 616E50E2
P 5850 9600
F 0 "#SUPPLY0105" H 5850 9600 50  0001 C CNN
F 1 "3.3V" H 5850 9828 59  0000 C CNN
F 2 "" H 5850 9600 50  0001 C CNN
F 3 "" H 5850 9600 50  0001 C CNN
	1    5850 9600
	1    0    0    -1  
$EndComp
$Comp
L geld_2021-rescue:3.3V-0_geld_2020 #SUPPLY0107
U 1 1 61741C2A
P 3450 9200
F 0 "#SUPPLY0107" H 3450 9200 50  0001 C CNN
F 1 "3.3V" H 3450 9428 59  0000 C CNN
F 2 "" H 3450 9200 50  0001 C CNN
F 3 "" H 3450 9200 50  0001 C CNN
	1    3450 9200
	1    0    0    -1  
$EndComp
$Comp
L geld_2021-rescue:GND-0_geld_2020 #GND0113
U 1 1 617F8A73
P 3950 10050
F 0 "#GND0113" H 3950 10050 50  0001 C CNN
F 1 "GND" H 3950 9923 59  0000 C CNN
F 2 "" H 3950 10050 50  0001 C CNN
F 3 "" H 3950 10050 50  0001 C CNN
	1    3950 10050
	1    0    0    -1  
$EndComp
$Comp
L geld_2021-rescue:3.3V-0_geld_2020 #SUPPLY0113
U 1 1 6190A813
P 2600 10950
F 0 "#SUPPLY0113" H 2600 10950 50  0001 C CNN
F 1 "3.3V" H 2600 11178 59  0000 C CNN
F 2 "" H 2600 10950 50  0001 C CNN
F 3 "" H 2600 10950 50  0001 C CNN
	1    2600 10950
	1    0    0    -1  
$EndComp
$Comp
L geld_2021-rescue:C-Device-geld_2020-rescue C?
U 1 1 61A796B3
P 4750 9650
AR Path="/5C3072CD/61A796B3" Ref="C?"  Part="1" 
AR Path="/5C3072CA/61A796B3" Ref="C?"  Part="1" 
AR Path="/61A796B3" Ref="C7"  Part="1" 
F 0 "C7" H 4600 9800 59  0000 L BNN
F 1 "1uF" H 4450 9600 59  0000 L BNN
F 2 "Capacitor_SMD:C_0603_1608Metric_Pad1.05x0.95mm_HandSolder" H 4750 9650 50  0001 C CNN
F 3 "" H 4750 9650 50  0001 C CNN
	1    4750 9650
	1    0    0    1   
$EndComp
$Comp
L geld_2021-rescue:GND-0_geld_2020 #GND0114
U 1 1 61B8DCE7
P 4750 10050
F 0 "#GND0114" H 4750 10050 50  0001 C CNN
F 1 "GND" H 4750 9923 59  0000 C CNN
F 2 "" H 4750 10050 50  0001 C CNN
F 3 "" H 4750 10050 50  0001 C CNN
	1    4750 10050
	1    0    0    -1  
$EndComp
Wire Wire Line
	3950 9300 3950 9900
Wire Wire Line
	4100 12200 4100 12400
Wire Wire Line
	4400 12400 4400 12500
Wire Wire Line
	2000 4000 2000 4250
Wire Wire Line
	2200 4000 2200 4250
Wire Wire Line
	17950 2200 17950 2100
Connection ~ 17950 2100
Wire Wire Line
	17950 2100 18250 2100
Wire Wire Line
	18250 2200 18250 2100
Connection ~ 18250 2100
Wire Wire Line
	18250 2100 19650 2100
Wire Wire Line
	19850 3500 20250 3500
Wire Wire Line
	19650 3500 19850 3500
Connection ~ 19850 3500
Wire Wire Line
	19850 3400 19850 3500
$Comp
L geld_2021-rescue:C-Device-geld_2020-rescue C3
U 1 1 5C3C6B5C
P 19850 3250
AR Path="/5C3C6B5C" Ref="C3"  Part="1" 
AR Path="/5C2E86C6/5C3C6B5C" Ref="C?"  Part="1" 
AR Path="/5C3072CA/5C3C6B5C" Ref="C?"  Part="1" 
F 0 "C3" H 19910 3365 59  0000 L BNN
F 1 "100nF" H 19910 3165 59  0000 L BNN
F 2 "Capacitor_SMD:C_0603_1608Metric_Pad1.05x0.95mm_HandSolder" H 19850 3250 50  0001 C CNN
F 3 "" H 19850 3250 50  0001 C CNN
	1    19850 3250
	1    0    0    -1  
$EndComp
Wire Wire Line
	20250 2100 20250 2150
Wire Wire Line
	20250 2450 20250 2500
Wire Wire Line
	20250 2500 20250 2650
Wire Wire Line
	20250 2950 20250 3000
Connection ~ 20250 3000
Wire Wire Line
	20250 3000 20950 3000
Wire Wire Line
	20250 3000 20250 3100
Wire Wire Line
	17550 2700 17550 3150
Wire Wire Line
	17550 3450 17550 3500
Wire Wire Line
	17600 2700 17550 2700
Connection ~ 17550 2700
Wire Wire Line
	17900 2700 18650 2700
$Comp
L geld_2021-rescue:1X5-0_geld_2020 J4
U 1 1 5C3C6BE7
P 14250 2850
AR Path="/5C3C6BE7" Ref="J4"  Part="1" 
AR Path="/5C2E86C6/5C3C6BE7" Ref="USB_CONN?"  Part="1" 
AR Path="/5C3072CA/5C3C6BE7" Ref="USB_CONN?"  Part="1" 
F 0 "J4" H 14150 3175 50  0000 L BNN
F 1 "1X5" H 14150 2475 50  0000 L BNN
F 2 "Connector_JST:JST_PH_B5B-PH-K_1x05_P2.00mm_Vertical" H 14250 2850 50  0001 C CNN
F 3 "" H 14250 2850 50  0001 C CNN
	1    14250 2850
	1    0    0    -1  
$EndComp
Wire Wire Line
	14350 2950 14950 2950
Wire Wire Line
	14350 2850 15150 2850
Wire Wire Line
	14350 2750 15150 2750
Wire Wire Line
	14350 2650 14950 2650
$Comp
L geld_2021-rescue:GND-0_geld_2020 #GND0119
U 1 1 5D265D3E
P 14950 3850
AR Path="/5D265D3E" Ref="#GND0119"  Part="1" 
AR Path="/5C2E86C6/5D265D3E" Ref="#GND?"  Part="1" 
AR Path="/5C3072CA/5D265D3E" Ref="#GND?"  Part="1" 
F 0 "#GND0119" H 14950 3850 50  0001 C CNN
F 1 "GND" H 14900 3700 59  0000 L BNN
F 2 "" H 14950 3850 50  0001 C CNN
F 3 "" H 14950 3850 50  0001 C CNN
	1    14950 3850
	1    0    0    -1  
$EndComp
Wire Wire Line
	2200 13500 2200 14500
$Comp
L geld_2021-rescue:EC12E_SW-0_geld_2020 SW12
U 1 1 63EE20C1
P 2600 13500
F 0 "SW12" H 2600 13500 50  0001 C CNN
F 1 "EC12E_SW" H 2400 13400 42  0001 L BNN
F 2 "geld_module:ALPS_EC12E_SW" H 2600 13500 50  0001 C CNN
F 3 "" H 2600 13500 50  0001 C CNN
	1    2600 13500
	0    1    1    0   
$EndComp
$Comp
L geld_2021-rescue:EC12E_SW-0_geld_2020 SW12
U 2 1 63EE643E
P 2700 13150
F 0 "SW12" H 2700 13150 50  0001 C CNN
F 1 "EC12E_SW" H 2500 13050 42  0001 L BNN
F 2 "geld_module:ALPS_EC12E_SW" H 2700 13150 50  0001 C CNN
F 3 "" H 2700 13150 50  0001 C CNN
	2    2700 13150
	1    0    0    -1  
$EndComp
$Comp
L geld_2021-rescue:EC12E_SW-0_geld_2020 SW12
U 3 1 63EEB801
P 2700 13900
F 0 "SW12" H 2700 13900 50  0001 C CNN
F 1 "EC12E_SW" H 2500 13800 42  0001 L BNN
F 2 "geld_module:ALPS_EC12E_SW" H 2700 13900 50  0001 C CNN
F 3 "" H 2700 13900 50  0001 C CNN
	3    2700 13900
	1    0    0    -1  
$EndComp
Connection ~ 4400 12800
Wire Wire Line
	4400 12800 4400 13500
Text Notes 8200 1450 0    276  ~ 0
DISPLAY
Text Notes 1300 1500 0    276  ~ 0
TEENSY 3.2
Text Notes 16750 1550 0    276  ~ 0
DMX
Text Notes 14050 1600 0    276  ~ 0
USB
Text Notes 1400 1850 0    100  ~ 0
https://www.pjrc.com/teensy/teensy31.html
Text Notes 8250 1850 0    100  ~ 0
https://www.buydisplay.com/qvga-2-4-inch-tft-lcd-\ntouch-shield-320x240-serial-module-display-ili9341
Text Notes 1400 7600 0    276  ~ 0
USER INTERFACE
Text Notes 22600 14400 1    236  ~ 0
GOOD ENOUGH LIGHTING DEVICES\nSM8 - 2021.1 
Text Label 10800 4150 0    70   ~ 0
TFT_DC
Text Label 10800 4050 0    70   ~ 0
TFT_BL
Wire Wire Line
	14050 10600 7650 10600
$Comp
L geld_2021-rescue:C-Device-geld_2020-rescue C?
U 1 1 60E0E5A2
P 11650 10950
AR Path="/5C3072CD/60E0E5A2" Ref="C?"  Part="1" 
AR Path="/5C3072CA/60E0E5A2" Ref="C?"  Part="1" 
AR Path="/60E0E5A2" Ref="C11"  Part="1" 
F 0 "C11" H 11710 11065 59  0000 L BNN
F 1 "100nF" H 11710 10865 59  0000 L BNN
F 2 "Capacitor_SMD:C_0603_1608Metric_Pad1.05x0.95mm_HandSolder" H 11650 10950 50  0001 C CNN
F 3 "" H 11650 10950 50  0001 C CNN
	1    11650 10950
	-1   0    0    -1  
$EndComp
$Comp
L geld_2021-rescue:C-Device-geld_2020-rescue C?
U 1 1 60E0DFC5
P 12450 10950
AR Path="/5C3072CD/60E0DFC5" Ref="C?"  Part="1" 
AR Path="/5C3072CA/60E0DFC5" Ref="C?"  Part="1" 
AR Path="/60E0DFC5" Ref="C12"  Part="1" 
F 0 "C12" H 12510 11065 59  0000 L BNN
F 1 "100nF" H 12510 10865 59  0000 L BNN
F 2 "Capacitor_SMD:C_0603_1608Metric_Pad1.05x0.95mm_HandSolder" H 12450 10950 50  0001 C CNN
F 3 "" H 12450 10950 50  0001 C CNN
	1    12450 10950
	-1   0    0    -1  
$EndComp
$Comp
L geld_2021-rescue:C-Device-geld_2020-rescue C?
U 1 1 60E0D9FF
P 13250 10950
AR Path="/5C3072CD/60E0D9FF" Ref="C?"  Part="1" 
AR Path="/5C3072CA/60E0D9FF" Ref="C?"  Part="1" 
AR Path="/60E0D9FF" Ref="C13"  Part="1" 
F 0 "C13" H 13310 11065 59  0000 L BNN
F 1 "100nF" H 13310 10865 59  0000 L BNN
F 2 "Capacitor_SMD:C_0603_1608Metric_Pad1.05x0.95mm_HandSolder" H 13250 10950 50  0001 C CNN
F 3 "" H 13250 10950 50  0001 C CNN
	1    13250 10950
	-1   0    0    -1  
$EndComp
$Comp
L geld_2021-rescue:C-Device-geld_2020-rescue C?
U 1 1 60E0D398
P 14050 10950
AR Path="/5C3072CD/60E0D398" Ref="C?"  Part="1" 
AR Path="/5C3072CA/60E0D398" Ref="C?"  Part="1" 
AR Path="/60E0D398" Ref="C14"  Part="1" 
F 0 "C14" H 14110 11065 59  0000 L BNN
F 1 "100nF" H 14110 10865 59  0000 L BNN
F 2 "Capacitor_SMD:C_0603_1608Metric_Pad1.05x0.95mm_HandSolder" H 14050 10950 50  0001 C CNN
F 3 "" H 14050 10950 50  0001 C CNN
	1    14050 10950
	-1   0    0    -1  
$EndComp
$Comp
L geld_2021-rescue:C-Device-geld_2020-rescue C?
U 1 1 60DB583A
P 14850 10950
AR Path="/5C3072CD/60DB583A" Ref="C?"  Part="1" 
AR Path="/5C3072CA/60DB583A" Ref="C?"  Part="1" 
AR Path="/60DB583A" Ref="C15"  Part="1" 
F 0 "C15" H 14910 11065 59  0000 L BNN
F 1 "100nF" H 14910 10865 59  0000 L BNN
F 2 "Capacitor_SMD:C_0603_1608Metric_Pad1.05x0.95mm_HandSolder" H 14850 10950 50  0001 C CNN
F 3 "" H 14850 10950 50  0001 C CNN
	1    14850 10950
	-1   0    0    -1  
$EndComp
Wire Wire Line
	14850 8500 14850 10700
Wire Wire Line
	10850 10200 10850 10800
Connection ~ 10850 10200
Wire Wire Line
	11650 10800 11650 10300
Connection ~ 11650 10300
Wire Wire Line
	12450 10400 12450 10800
Connection ~ 12450 10400
Wire Wire Line
	13250 10500 7650 10500
Wire Wire Line
	13250 10800 13250 10500
Connection ~ 13250 10500
Wire Wire Line
	14050 10600 14050 10800
Connection ~ 14050 10600
Wire Wire Line
	7650 10700 14850 10700
Connection ~ 14850 10700
Wire Wire Line
	14850 10700 14850 10800
Text Notes 9150 11450 0    50   ~ 0
CAPS USED FOR DENOISING
Wire Wire Line
	14950 2950 14950 3750
Text Notes 12400 15350 0    50   ~ 0
BUTTONS PULLED UP VIA SOFTWARE_PULLUP\n
Text Notes 16650 3150 0    50   ~ 0
5V Signalpegel!
Text Notes 3750 2950 0    50   ~ 0
5V Signalpegel!
Wire Wire Line
	6600 2100 6600 2450
Wire Wire Line
	6100 2450 6600 2450
$Comp
L geld_2021-rescue:5V-0_geld_2020 #SUPPLY0115
U 1 1 61046D65
P 6600 2100
F 0 "#SUPPLY0115" H 6600 2100 50  0001 C CNN
F 1 "5V" H 6600 2328 59  0000 C CNN
F 2 "" H 6600 2100 50  0001 C CNN
F 3 "" H 6600 2100 50  0001 C CNN
	1    6600 2100
	1    0    0    -1  
$EndComp
Wire Wire Line
	16800 9200 16800 8900
$Comp
L geld_2021-rescue:3.3V-0_geld_2020 #SUPPLY0103
U 1 1 61BEA738
P 16800 8900
AR Path="/61BEA738" Ref="#SUPPLY0103"  Part="1" 
AR Path="/5C2E86C6/61BEA738" Ref="#SUPPLY?"  Part="1" 
AR Path="/5C3072CA/61BEA738" Ref="#SUPPLY?"  Part="1" 
F 0 "#SUPPLY0103" H 16800 8900 50  0001 C CNN
F 1 "3.3V" H 16760 9040 59  0000 L BNN
F 2 "" H 16800 8900 50  0001 C CNN
F 3 "" H 16800 8900 50  0001 C CNN
	1    16800 8900
	1    0    0    -1  
$EndComp
Wire Wire Line
	3050 4950 4300 4950
Wire Wire Line
	2200 4850 4300 4850
Wire Wire Line
	2000 4750 4300 4750
Wire Wire Line
	3200 4650 4300 4650
Wire Wire Line
	4300 4550 2950 4550
Wire Wire Line
	2900 4450 4300 4450
Wire Wire Line
	4300 4350 2900 4350
Wire Wire Line
	3050 4250 4300 4250
Wire Wire Line
	3050 4150 4300 4150
Wire Wire Line
	3050 4050 4300 4050
Wire Wire Line
	4300 3950 3050 3950
Wire Wire Line
	3050 3850 4300 3850
Wire Wire Line
	4300 3550 3050 3550
Wire Wire Line
	3050 3350 4300 3350
Wire Wire Line
	4300 3150 3400 3150
Wire Wire Line
	4300 3050 3400 3050
Wire Wire Line
	4300 2950 3400 2950
Text HLabel 3050 3200 0    50   Input ~ 0
TP_CS
Text HLabel 6850 3950 2    50   Input ~ 0
TP_PEN
Wire Wire Line
	4300 3250 3150 3250
Wire Wire Line
	3150 3250 3150 3200
Wire Wire Line
	3150 3200 3050 3200
$Comp
L geld_2021-rescue:TEENSY_3.2_USB-0_geld_2020 U$2
U 1 1 5C3C6B75
P 5200 4050
AR Path="/5C3C6B75" Ref="U$2"  Part="1" 
AR Path="/5C2E86C6/5C3C6B75" Ref="U$?"  Part="1" 
AR Path="/5C3072CA/5C3C6B75" Ref="U$?"  Part="1" 
F 0 "U$2" H 4580 5900 50  0000 L BNB
F 1 "TEENSY_3.2_USB" H 5090 2550 50  0000 L BNB
F 2 "geld_module:TEENS_3.2_USB" H 5200 4050 50  0001 C CNN
F 3 "" H 5200 4050 50  0001 C CNN
	1    5200 4050
	1    0    0    -1  
$EndComp
Wire Wire Line
	6100 3950 6850 3950
Wire Wire Line
	4300 3650 3200 3650
Wire Wire Line
	4300 3750 3200 3750
Text HLabel 3200 3650 0    50   Input ~ 0
MIDI_RX
Text HLabel 3200 3750 0    50   Input ~ 0
MIDI_TX
Text Label 3500 3650 0    50   ~ 0
MIDI_IN
$Comp
L geld_2021-rescue:1X3-0_geld_2020 J5
U 1 1 5C3C6BEE
P 21550 3150
AR Path="/5C3C6BEE" Ref="J5"  Part="1" 
AR Path="/5C2E86C6/5C3C6BEE" Ref="DMX_CONN?"  Part="1" 
AR Path="/5C3072CA/5C3C6BEE" Ref="DMX_CONN?"  Part="1" 
F 0 "J5" H 21450 3375 50  0000 L BNN
F 1 "1X3" H 21450 2875 50  0000 L BNN
F 2 "Connector_JST:JST_PH_B3B-PH-K_1x03_P2.00mm_Vertical" H 21550 3150 50  0001 C CNN
F 3 "" H 21550 3150 50  0001 C CNN
	1    21550 3150
	1    0    0    -1  
$EndComp
$Comp
L geld_2021-rescue:Conn_01x06_Male-Connector-geld_2020-rescue J8
U 1 1 5DCB24B6
P 17800 9100
F 0 "J8" H 17908 9485 50  0000 C CNN
F 1 "PWM_CONN" H 17908 9392 50  0000 C CNN
F 2 "Connector_JST:JST_PH_B6B-PH-K_1x06_P2.00mm_Vertical" H 17800 9100 50  0001 C CNN
F 3 "~" H 17800 9100 50  0001 C CNN
	1    17800 9100
	1    0    0    -1  
$EndComp
Wire Wire Line
	6600 11750 1250 11750
Text Notes 13100 5050 0    276  ~ 0
to be added:
Text Notes 13150 6050 0    100  ~ 0
proper connector docu\nshitty addon 1.69bis\n-> https://hackaday.com/2019/03/20/introducing-the-shitty-add-on-v1-69bis-standard/\n
$EndSCHEMATC
